P4/P4_test_1.0/P4_test/src_1.0/mips_tb.vcd
$date
	Mon Nov 07 09:47:15 2022
$end
$version
	Icarus Verilog
$end
$timescale
	1ps
$end
$scope module mips_tb $end
$var reg 1 ! clk $end
$var reg 1 " reset $end
$scope module uut $end
$var wire 1 ! clk $end
$var wire 1 " reset $end
$var wire 32 # s [31:0] $end
$var wire 32 $ WD [31:0] $end
$var wire 32 % SrcB [31:0] $end
$var wire 32 & SrcA [31:0] $end
$var wire 1 ' Regwrite $end
$var wire 2 ( RegDst [1:0] $end
$var wire 32 ) RD2 [31:0] $end
$var wire 32 * RD1 [31:0] $end
$var wire 32 + RD [31:0] $end
$var wire 32 , PC [31:0] $end
$var wire 2 - NPCop [1:0] $end
$var wire 32 . NPC [31:0] $end
$var wire 1 / Memwrite $end
$var wire 2 0 MemtoReg [1:0] $end
$var wire 1 1 Less $end
$var wire 32 2 Instr [31:0] $end
$var wire 1 3 Equal $end
$var wire 1 4 EXTop $end
$var wire 32 5 EXTImm [31:0] $end
$var wire 2 6 DMop [1:0] $end
$var wire 3 7 Branchop [2:0] $end
$var wire 2 8 ALUsrc [1:0] $end
$var wire 3 9 ALUctrl [2:0] $end
$var wire 32 : ALUResult [31:0] $end
$var wire 5 ; A3 [4:0] $end
$scope module _alu $end
$var wire 32 < SrcA [31:0] $end
$var wire 32 = SrcB [31:0] $end
$var wire 1 1 Less $end
$var wire 1 3 Equal $end
$var wire 3 > ALUop [2:0] $end
$var wire 32 ? ALUResult [31:0] $end
$upscope $end
$scope module _ctrl $end
$var wire 1 4 EXTop $end
$var wire 6 @ Func [5:0] $end
$var wire 1 / Memwrite $end
$var wire 6 A OP [5:0] $end
$var wire 1 B R $end
$var wire 1 ' Regwrite $end
$var wire 1 C Xorr $end
$var wire 1 D add $end
$var wire 1 E beq $end
$var wire 1 F j $end
$var wire 1 G jal $end
$var wire 1 H jr $end
$var wire 1 I lui $end
$var wire 1 J lw $end
$var wire 1 K ori $end
$var wire 32 L rs [31:0] $end
$var wire 1 M sub $end
$var wire 1 N sw $end
$var wire 1 O bosal $end
$var wire 2 P RegDst [1:0] $end
$var wire 2 Q NPCop [1:0] $end
$var wire 2 R MemtoReg [1:0] $end
$var wire 2 S DMop [1:0] $end
$var wire 3 T Branchop [2:0] $end
$var wire 2 U ALUsrc [1:0] $end
$var wire 3 V ALUctrl [2:0] $end
$upscope $end
$scope module _dm $end
$var wire 32 W A [31:0] $end
$var wire 2 X DMop [1:0] $end
$var wire 32 Y Data0 [31:0] $end
$var wire 1 / Memwrite $end
$var wire 32 Z RD0 [31:0] $end
$var wire 32 [ RD_ram [31:0] $end
$var wire 1 ! clk $end
$var wire 1 " reset $end
$var wire 8 \ WD8_15 [7:0] $end
$var wire 8 ] WD24_31 [7:0] $end
$var wire 8 ^ WD16_23 [7:0] $end
$var wire 8 _ WD0_7 [7:0] $end
$var wire 32 ` WD [31:0] $end
$var wire 8 a RD8_15 [7:0] $end
$var wire 8 b RD24_31 [7:0] $end
$var wire 32 c RD2 [31:0] $end
$var wire 8 d RD16_23 [7:0] $end
$var wire 32 e RD1 [31:0] $end
$var wire 8 f RD0_7 [7:0] $end
$var wire 32 g RD [31:0] $end
$var wire 32 h PC [31:0] $end
$var wire 32 i Data2 [31:0] $end
$var wire 32 j Data1 [31:0] $end
$var wire 32 k Data [31:0] $end
$var integer 32 l i [31:0] $end
$upscope $end
$scope module _ext $end
$var wire 1 4 EXTop $end
$var wire 16 m Imm [15:0] $end
$var wire 32 n EXTImm [31:0] $end
$upscope $end
$scope module _grf $end
$var wire 5 o A1 [4:0] $end
$var wire 5 p A2 [4:0] $end
$var wire 5 q A3 [4:0] $end
$var wire 32 r RD1 [31:0] $end
$var wire 32 s RD2 [31:0] $end
$var wire 32 t WD [31:0] $end
$var wire 1 ' WE $end
$var wire 1 ! clk $end
$var wire 1 " reset $end
$var wire 32 u wd [31:0] $end
$var wire 32 v PC [31:0] $end
$var integer 32 w i [31:0] $end
$upscope $end
$scope module _ifu $end
$var wire 3 x Branchop [2:0] $end
$var wire 1 3 Equal $end
$var wire 32 y Instr [31:0] $end
$var wire 1 1 Less $end
$var wire 32 z NPC [31:0] $end
$var wire 2 { NPCop [1:0] $end
$var wire 32 | Reg [31:0] $end
$var wire 1 } big $end
$var wire 1 ~ big_equal $end
$var wire 1 ! clk $end
$var wire 1 !" equal $end
$var wire 26 "" instr_index [25:0] $end
$var wire 1 #" less $end
$var wire 1 $" less_equal $end
$var wire 1 %" n_equal $end
$var wire 16 &" offset [15:0] $end
$var wire 1 " reset $end
$var wire 32 '" PC1 [31:0] $end
$var wire 32 (" NPC_wire [31:0] $end
$var reg 32 )" PC [31:0] $end
$scope module npc $end
$var wire 3 *" Branchop [2:0] $end
$var wire 2 +" NPCop [1:0] $end
$var wire 32 ," O4 [31:0] $end
$var wire 32 -" PC [31:0] $end
$var wire 32 ." Reg [31:0] $end
$var wire 1 } big $end
$var wire 1 ~ big_or_equal $end
$var wire 1 !" equal $end
$var wire 26 /" instr_index [25:0] $end
$var wire 1 #" less $end
$var wire 1 $" less_or_equal $end
$var wire 1 %" n_equal $end
$var wire 16 0" offset [15:0] $end
$var wire 1 1" O3_MUX_ctrl $end
$var wire 32 2" O3 [31:0] $end
$var wire 32 3" O2 [31:0] $end
$var wire 32 4" O1 [31:0] $end
$var wire 32 5" NPC [31:0] $end
$upscope $end
$upscope $end
$upscope $end
$upscope $end
$enddefinitions $end
#0
$dumpvars
b11000000000100 5"
b11000000000100 4"
b11101001000101111110000 3"
b0x011x0xxxxxx0100 2"
x1"
b10001011111100 0"
b111010010001011111100 /"
bx ."
b11000000000000 -"
bx ,"
b0 +"
b0 *"
b11000000000000 )"
b11000000000100 ("
b0 '"
b10001011111100 &"
x%"
x$"
x#"
b111010010001011111100 ""
x!"
x~
x}
bx |
b0 {
b11000000000100 z
b110100000111010010001011111100 y
b0 x
b0 w
b11000000000000 v
bx1xxx1x111111xx u
bx1xxx1x111111xx t
bx s
bx r
b11101 q
b11101 p
b0 o
b10001011111100 n
b10001011111100 m
b0 l
bx k
bx j
bx i
b11000000000000 h
bx g
bx f
bx e
bx d
bx c
bx b
bx a
bx `
bx _
bx ^
bx ]
bx \
bx [
bx Z
bx Y
b0 X
bx1xxx1x111111xx W
b10 V
b1 U
b0 T
b0 S
b0 R
b0 Q
b0 P
0O
0N
0M
bz L
1K
0J
0I
0H
0G
0F
0E
0D
0C
0B
b1101 A
b111100 @
bx1xxx1x111111xx ?
b10 >
b10001011111100 =
bx <
b11101 ;
bx1xxx1x111111xx :
b10 9
b1 8
b0 7
b0 6
b10001011111100 5
04
x3
b110100000111010010001011111100 2
x1
b0 0
0/
b11000000000100 .
b0 -
b11000000000000 ,
bx +
bx *
bx )
b0 (
1'
bx &
b10001011111100 %
bx1xxx1x111111xx $
b1011 #
1"
0!
$end
#1000
b0 e
b0 c
b0 b
b0 d
b0 a
b0 f
b0 +
b0 g
b0 j
b0 i
b10001011111100 u
b0 Z
b0 [
b10001011111100 $
b10001011111100 t
b10001011111100 :
b10001011111100 ?
b10001011111100 W
b11000000000100 2"
0}
01"
1%"
1$"
0~
b0 k
b0 ]
b0 ^
b0 \
b0 _
0!"
03
1#"
11
b0 &
b0 <
b0 Y
b0 )
b0 `
b0 s
b0 ,"
b0 *
b0 r
b0 |
b0 ."
b100000 w
b1000000000000 l
1!
#2000
0!
#3000
b1000000000000 l
b100000 w
1!
#4000
0!
#5000
b100000 w
b1000000000000 l
1!
#6000
0!
#7000
b1000000000000 l
b100000 w
1!
#8000
0!
#9000
b100000 w
b1000000000000 l
1!
#10000
0!
#11000
b1000000000000 l
b100000 w
1!
#12000
0!
#13000
b100000 w
b1000000000000 l
1!
#14000
0!
#15000
b1000000000000 l
b100000 w
1!
#16000
0!
#17000
b100000 w
b1000000000000 l
1!
#18000
0!
#19000
b1000000000000 l
b100000 w
1!
#20000
0!
0"
#21000
b1100000000000 u
b1100000000000 $
b1100000000000 t
b1100000000000 :
b1100000000000 ?
b1100000000000 W
b1100000000000 %
b1100000000000 =
b1100000000000 5
b1100000000000 n
b11100 ;
b11100 q
b1100000000000 m
b11100 p
b0 #
b1100000000000 &"
b1100000000000 0"
b11100000110000000000000 3"
b111000001100000000000 ""
b111000001100000000000 /"
b0 @
b0 j
b0 i
b110100000111000001100000000000 2
b110100000111000001100000000000 y
b11000000001000 .
b11000000001000 z
b11000000001000 ("
b11000000001000 5"
b11000000001000 2"
b0 k
b0 \
b0 _
b100 '"
b11000000001000 4"
b11000000000100 ,
b11000000000100 h
b11000000000100 v
b11000000000100 )"
b11000000000100 -"
b0 Y
b0 )
b0 `
b0 s
1!
#22000
0!
#23000
b11000000000000 u
b11000000000000 $
b11000000000000 t
b11000000000000 :
b11000000000000 ?
b11000000000000 W
b11000000000000 %
b11000000000000 =
b11000000000000 5
b11000000000000 n
b11111 ;
b11111 q
b0 j
b11000000000000 m
b11111 p
b11000000000000 &"
b11000000000000 0"
b11111001100000000000000 3"
b111110011000000000000 ""
b111110011000000000000 /"
b0 k
b0 \
b110100000111110011000000000000 2
b110100000111110011000000000000 y
b11000000001100 .
b11000000001100 z
b11000000001100 ("
b11000000001100 5"
b11000000001100 2"
b0 Y
b0 )
b0 `
b0 s
b1000 '"
b11000000001100 4"
b11000000001000 ,
b11000000001000 h
b11000000001000 v
b11000000001000 )"
b11000000001000 -"
1!
#24000
0!
#25000
0'
1B
b0 8
b0 U
b0 $
b0 t
11"
0%"
1~
b0 :
b0 ?
b0 W
1!"
13
0#"
01
b0 %
b0 =
b0 9
b0 >
b0 V
b0 u
0K
b0 5
b0 n
b0 ;
b0 q
b0 m
b0 p
b0 &"
b0 0"
b0 3"
b0 ""
b0 /"
b0 A
b0 j
b0 2
b0 y
b11000000010000 .
b11000000010000 z
b11000000010000 ("
b11000000010000 5"
b11000000010000 2"
b0 k
b0 \
b1100 '"
b11000000010000 4"
b11000000001100 ,
b11000000001100 h
b11000000001100 v
b11000000001100 )"
b11000000001100 -"
b0 Y
b0 )
b0 `
b0 s
1!
#26000
0!
#27000
1'
b1 (
b1 P
b1 9
b1 >
b1 V
1M
b11000000100010 5
b11000000100010 n
b110 ;
b110 q
b11000000100010 m
b10010 p
b111 o
b11000000100010 &"
b11000000100010 0"
b11110010001100000010001000 3"
b111100100011000000100010 ""
b111100100011000000100010 /"
b100010 @
b111100100011000000100010 2
b111100100011000000100010 y
b11000000010100 .
b11000000010100 z
b11000000010100 ("
b11000000010100 5"
b1111000010011100 2"
b10000 '"
b11000000010100 4"
b11000000010000 ,
b11000000010000 h
b11000000010000 v
b11000000010000 )"
b11000000010000 -"
1!
#28000
0!
#29000
1'
b1 (
b1 P
1D
b0 9
b0 >
b0 V
0M
b1000 ;
b1000 q
b100000000100000 5
b100000000100000 n
b100000000100000 m
b10111 p
b1111 o
b100000000100000 &"
b100000000100000 0"
b111110111010000000010000000 3"
b1111101110100000000100000 ""
b1111101110100000000100000 /"
b100000 @
b1111101110100000000100000 2
b1111101110100000000100000 y
b11000000011000 .
b11000000011000 z
b11000000011000 ("
b11000000011000 5"
b10011000010011000 2"
b10100 '"
b11000000011000 4"
b11000000010100 ,
b11000000010100 h
b11000000010100 v
b11000000010100 )"
b11000000010100 -"
1!
#30000
0!
#31000
b11010 ;
b11010 q
b1101000000100000 5
b1101000000100000 n
b1101000000100000 m
b1111 p
b11 o
b1101000000100000 &"
b1101000000100000 0"
b1101111110100000010000000 3"
b11011111101000000100000 ""
b11011111101000000100000 /"
b11011111101000000100000 2
b11011111101000000100000 y
b11000000011100 .
b11000000011100 z
b11000000011100 ("
b11000000011100 5"
b11111111111111110111000010011100 2"
b11000 '"
b11000000011100 4"
b11000000011000 ,
b11000000011000 h
b11000000011000 v
b11000000011000 )"
b11000000011000 -"
1!
#32000
0!
#33000
b1010101000010100 u
b1010101000010100 $
b1010101000010100 t
b1010101000010100 :
b1010101000010100 ?
b1010101000010100 W
01"
1%"
0~
0!"
03
1#"
11
b1010101000010100 %
b1010101000010100 =
b1 8
b1 U
b0 (
b0 P
b10 9
b10 >
b10 V
0D
0B
1K
b0 -
b0 Q
b0 {
b0 +"
b10011 ;
b10011 q
0F
b1010101000010100 5
b1010101000010100 n
b1010101000010100 m
b10011 p
b1101 o
b1000 #
b1010101000010100 &"
b1010101000010100 0"
b110110011101010100001010000 3"
b1101100111010101000010100 ""
b1101100111010101000010100 /"
b10100 @
b1101 A
b110101101100111010101000010100 2
b110101101100111010101000010100 y
b11000000100000 .
b11000000100000 z
b11000000100000 ("
b11000000100000 5"
b11000000100000 2"
b11100 '"
b11000000100000 4"
b11000000011100 ,
b11000000011100 h
b11000000011100 v
b11000000011100 )"
b11000000011100 -"
1!
#34000
0!
#35000
0'
1B
b0 8
b0 U
b0 $
b0 t
11"
0%"
1~
b0 :
b0 ?
b0 W
1!"
13
0#"
01
b0 %
b0 =
b0 9
b0 >
b0 V
b0 u
0K
b0 5
b0 n
b0 ;
b0 q
b0 j
b0 i
b0 m
b0 p
b0 o
b0 #
b0 &"
b0 0"
b0 3"
b0 ""
b0 /"
b0 @
b0 A
b0 k
b0 \
b0 _
b0 2
b0 y
b11000000100100 .
b11000000100100 z
b11000000100100 ("
b11000000100100 5"
b11000000100100 2"
b0 Y
b0 )
b0 `
b0 s
b100000 '"
b11000000100100 4"
b11000000100000 ,
b11000000100000 h
b11000000100000 v
b11000000100000 )"
b11000000100000 -"
1!
#36000
0!
#37000
b100111100 u
b100111100 $
b100111100 t
b100111100 :
b100111100 ?
b100111100 W
01"
1%"
0~
1'
0!"
03
1#"
11
b100111100 %
b100111100 =
b1 8
b1 U
b10 9
b10 >
b10 V
0B
1K
b0 -
b0 Q
b0 {
b0 +"
0F
b100111100 5
b100111100 n
b1011 ;
b1011 q
b100111100 m
b1011 p
b100 #
b100111100 &"
b100111100 0"
b1011000000010011110000 3"
b10110000000100111100 ""
b10110000000100111100 /"
b111100 @
b1101 A
b110100000010110000000100111100 2
b110100000010110000000100111100 y
b11000000101000 .
b11000000101000 z
b11000000101000 ("
b11000000101000 5"
b11000000101000 2"
b100100 '"
b11000000101000 4"
b11000000100100 ,
b11000000100100 h
b11000000100100 v
b11000000100100 )"
b11000000100100 -"
1!
#38000
0!
#39000
b0 -
b0 Q
b0 {
b0 +"
14
b0 (
b0 P
b101011000 :
b101011000 ?
b101011000 W
1J
b0 u
0G
1}
b0 9
b0 >
b0 V
b0 $
b0 t
0$"
0K
b1 0
b1 R
b11100 %
b11100 =
0I
01"
1%"
1~
b11100 5
b11100 n
0!"
03
0#"
01
b100111100 &
b100111100 <
b10101 ;
b10101 q
b0 j
b0 i
b11100 m
b10101 p
b100111100 ,"
b100111100 *
b100111100 r
b100111100 |
b100111100 ."
b1011 o
b0 #
b11100 &"
b11100 0"
b101110101000000000001110000 3"
b1011101010000000000011100 ""
b1011101010000000000011100 /"
b11100 @
b100011 A
b0 k
b0 \
b0 _
b10001101011101010000000000011100 2
b10001101011101010000000000011100 y
b11000000101100 .
b11000000101100 z
b11000000101100 ("
b11000000101100 5"
b11000000101100 2"
b0 Y
b0 )
b0 `
b0 s
b101000 '"
b11000000101100 4"
b11000000101000 ,
b11000000101000 h
b11000000101000 v
b11000000101000 )"
b11000000101000 -"
1!
#40000
0!
#41000
1B
0'
04
b0 8
b0 U
11"
0%"
b0 0
b0 R
1!"
13
b0 %
b0 =
0}
1$"
1~
b0 :
b0 ?
b0 W
0J
b0 5
b0 n
0#"
01
b0 &
b0 <
b0 ;
b0 q
b0 m
b0 p
b0 ,"
b0 *
b0 r
b0 |
b0 ."
b0 o
b0 &"
b0 0"
b0 3"
b0 ""
b0 /"
b0 @
b0 A
b0 2
b0 y
b11000000110000 .
b11000000110000 z
b11000000110000 ("
b11000000110000 5"
b11000000110000 2"
b101100 '"
b11000000110000 4"
b11000000101100 ,
b11000000101100 h
b11000000101100 v
b11000000101100 )"
b11000000101100 -"
1!
#42000
0!
#43000
b11010000 u
b11010000 $
b11010000 t
b11010000 :
b11010000 ?
b11010000 W
01"
1%"
0~
1'
0!"
03
1#"
11
b11010000 %
b11010000 =
b1 8
b1 U
b10 9
b10 >
b10 V
0B
1K
b0 -
b0 Q
b0 {
b0 +"
0F
b11010000 5
b11010000 n
b111 ;
b111 q
b11010000 m
b111 p
b11 #
b11010000 &"
b11010000 0"
b111000000001101000000 3"
b1110000000011010000 ""
b1110000000011010000 /"
b10000 @
b1101 A
b110100000001110000000011010000 2
b110100000001110000000011010000 y
b11000000110100 .
b11000000110100 z
b11000000110100 ("
b11000000110100 5"
b11000000110100 2"
b110000 '"
b11000000110100 4"
b11000000110000 ,
b11000000110000 h
b11000000110000 v
b11000000110000 )"
b11000000110000 -"
1!
#44000
0!
#45000
b0 -
b0 Q
b0 {
b0 +"
14
b0 (
b0 P
b11110100 :
b11110100 ?
b11110100 W
1J
b0 u
0G
1}
b0 9
b0 >
b0 V
b0 $
b0 t
0$"
0K
b1 0
b1 R
b100100 %
b100100 =
0I
01"
1%"
1~
b100100 5
b100100 n
0!"
03
0#"
01
b11010000 &
b11010000 <
b10 ;
b10 q
b100100 m
b10 p
b11010000 ,"
b11010000 *
b11010000 r
b11010000 |
b11010000 ."
b111 o
b0 #
b100100 &"
b100100 0"
b11100010000000000010010000 3"
b111000100000000000100100 ""
b111000100000000000100100 /"
b100100 @
b100011 A
b0 j
b0 i
b10001100111000100000000000100100 2
b10001100111000100000000000100100 y
b11000000111000 .
b11000000111000 z
b11000000111000 ("
b11000000111000 5"
b11000000111000 2"
b0 k
b0 _
b110100 '"
b11000000111000 4"
b11000000110100 ,
b11000000110100 h
b11000000110100 v
b11000000110100 )"
b11000000110100 -"
b0 Y
b0 )
b0 `
b0 s
1!
#46000
0!
#47000
b10 -
b10 Q
b10 {
b10 +"
0'
11"
0%"
1E
1!"
13
b0 u
04
b0 8
b0 U
b0 $
b0 t
b0 0
b0 R
b0 %
b0 =
0}
1$"
1~
b0 :
b0 ?
b0 W
0J
b1 5
b1 n
0#"
01
b0 &
b0 <
b10100 ;
b10100 q
b1 m
b10100 p
b0 ,"
b0 *
b0 r
b0 |
b0 ."
b1100 o
b1 &"
b1 0"
b110010100000000000000000100 3"
b1100101000000000000000001 ""
b1100101000000000000000001 /"
b1 @
b100 A
b10001100101000000000000000001 2
b10001100101000000000000000001 y
b11000001000000 .
b11000001000000 z
b11000001000000 ("
b11000001000000 5"
b11000001000000 2"
b111000 '"
b11000000111100 4"
b11000000111000 ,
b11000000111000 h
b11000000111000 v
b11000000111000 )"
b11000000111000 -"
1!
#48000
0!
#49000
b101001100 u
b101001100 $
b101001100 t
b101001100 :
b101001100 ?
b101001100 W
01"
1%"
0~
1'
0!"
03
1#"
11
b101001100 %
b101001100 =
b1 8
b1 U
b10 9
b10 >
b10 V
1K
b0 -
b0 Q
b0 {
b0 +"
0E
b11000001000100 .
b11000001000100 z
b11000001000100 ("
b11000001000100 5"
b101001100 5
b101001100 n
b101001100 m
b0 o
b101 #
b101001100 &"
b101001100 0"
b10100000000010100110000 3"
b101000000000101001100 ""
b101000000000101001100 /"
b1100 @
b1101 A
b110100000101000000000101001100 2
b110100000101000000000101001100 y
b11000001000100 2"
b1000000 '"
b11000001000100 4"
b11000001000000 ,
b11000001000000 h
b11000001000000 v
b11000001000000 )"
b11000001000000 -"
1!
#50000
0!
#51000
0'
14
1/
b101110000 :
b101110000 ?
b101110000 W
1N
b101110000 u
1}
b0 9
b0 >
b0 V
b101110000 $
b101110000 t
0$"
0K
b0 0
b0 R
b100100 %
b100100 =
0I
01"
1%"
1~
b100100 5
b100100 n
0!"
03
0#"
01
b101001100 &
b101001100 <
b11011 ;
b11011 q
b0 j
b0 i
b100100 m
b11011 p
b101001100 ,"
b101001100 *
b101001100 r
b101001100 |
b101001100 ."
b10100 o
b0 #
b100100 &"
b100100 0"
b1010011011000000000010010000 3"
b10100110110000000000100100 ""
b10100110110000000000100100 /"
b100100 @
b101011 A
b0 k
b0 \
b0 _
b10101110100110110000000000100100 2
b10101110100110110000000000100100 y
b11000001001000 .
b11000001001000 z
b11000001001000 ("
b11000001001000 5"
b11000001001000 2"
b0 Y
b0 )
b0 `
b0 s
b1000100 '"
b11000001001000 4"
b11000001000100 ,
b11000001000100 h
b11000001000100 v
b11000001000100 )"
b11000001000100 -"
1!
#52000
0!
#53000
b10 -
b10 Q
b10 {
b10 +"
1E
11"
0%"
1!"
13
04
b0 8
b0 U
b0 %
b0 =
0}
b0 $
b0 t
0/
1$"
1~
b0 :
b0 ?
b0 W
b0 u
0N
b10000 5
b10000 n
0#"
01
b0 &
b0 <
b0 ;
b0 q
b10000 m
b0 p
b0 ,"
b0 *
b0 r
b0 |
b0 ."
b10001 o
b10000 &"
b10000 0"
b1000100000000000000001000000 3"
b10001000000000000000010000 ""
b10001000000000000000010000 /"
b10000 @
b100 A
b10010001000000000000000010000 2
b10010001000000000000000010000 y
b11000010001100 .
b11000010001100 z
b11000010001100 ("
b11000010001100 5"
b11000010001100 2"
b1001000 '"
b11000001001100 4"
b11000001001000 ,
b11000001001000 h
b11000001001000 v
b11000001001000 )"
b11000001001000 -"
1!
#54000
0!
#55000
1B
b0 -
b0 Q
b0 {
b0 +"
0E
b11000010010000 .
b11000010010000 z
b11000010010000 ("
b11000010010000 5"
b0 5
b0 n
b0 m
b0 o
b0 &"
b0 0"
b0 3"
b0 ""
b0 /"
b0 @
b0 A
b0 2
b0 y
b11000010010000 2"
b10001100 '"
b11000010010000 4"
b11000010001100 ,
b11000010001100 h
b11000010001100 v
b11000010001100 )"
b11000010001100 -"
1!
#56000
0!
#57000
1'
b1 (
b1 P
b1 9
b1 >
b1 V
1M
b1110000000100010 5
b1110000000100010 n
b11100 ;
b11100 q
b1110000000100010 m
b11011 p
b1100 o
b1110000000100010 &"
b1110000000100010 0"
b110011011111000000010001000 3"
b1100110111110000000100010 ""
b1100110111110000000100010 /"
b100010 @
b1100110111110000000100010 2
b1100110111110000000100010 y
b11000010010100 .
b11000010010100 z
b11000010010100 ("
b11000010010100 5"
b11111111111111111011000100011100 2"
b10010000 '"
b11000010010100 4"
b11000010010000 ,
b11000010010000 h
b11000010010000 v
b11000010010000 )"
b11000010010000 -"
1!
#58000
0!
#59000
b1 8
b1 U
b0 (
b0 P
0B
1K
0D
b10 9
b10 >
b10 V
b0 -
b0 Q
b0 {
b0 +"
0M
b11 ;
b11 q
0F
b0 5
b0 n
b0 m
b11 p
b0 o
b0 &"
b0 0"
b11000000000000000000 3"
b110000000000000000 ""
b110000000000000000 /"
b0 @
b1101 A
b110100000000110000000000000000 2
b110100000000110000000000000000 y
b11000010011000 .
b11000010011000 z
b11000010011000 ("
b11000010011000 5"
b11000010011000 2"
b10010100 '"
b11000010011000 4"
b11000010010100 ,
b11000010010100 h
b11000010010100 v
b11000010010100 )"
b11000010010100 -"
1!
#60000
0!
#61000
0'
b100000 u
14
b100000 $
b100000 t
1/
b100000 :
b100000 ?
b100000 W
1N
b0 9
b0 >
b0 V
01"
1%"
0~
0K
b0 0
b0 R
0!"
03
1#"
11
b100000 %
b100000 =
0I
b100000 5
b100000 n
b11011 ;
b11011 q
b100000 m
b11011 p
b11 o
b100000 &"
b100000 0"
b1111011000000000010000000 3"
b11110110000000000100000 ""
b11110110000000000100000 /"
b100000 @
b101011 A
b10101100011110110000000000100000 2
b10101100011110110000000000100000 y
b11000010011100 .
b11000010011100 z
b11000010011100 ("
b11000010011100 5"
b11000010011100 2"
b10011000 '"
b11000010011100 4"
b11000010011000 ,
b11000010011000 h
b11000010011000 v
b11000010011000 )"
b11000010011000 -"
1!
#62000
0!
#63000
1'
b10 9
b10 >
b10 V
1K
01"
1%"
0~
b110111000 u
0!"
03
1#"
11
b110111000 $
b110111000 t
04
b1 8
b1 U
b110111000 :
b110111000 ?
b110111000 W
0/
b110111000 %
b110111000 =
0N
b110111000 5
b110111000 n
b10010 ;
b10010 q
b110111000 m
b10010 p
b0 o
b110 #
b110111000 &"
b110111000 0"
b10010000000011011100000 3"
b100100000000110111000 ""
b100100000000110111000 /"
b111000 @
b1101 A
b110100000100100000000110111000 2
b110100000100100000000110111000 y
b11000010100000 .
b11000010100000 z
b11000010100000 ("
b11000010100000 5"
b11000010100000 2"
b10011100 '"
b11000010100000 4"
b11000010011100 ,
b11000010011100 h
b11000010011100 v
b11000010011100 )"
b11000010011100 -"
1!
#64000
0!
#65000
0'
14
1/
b111010000 :
b111010000 ?
b111010000 W
1N
b111010000 u
1}
b0 9
b0 >
b0 V
b111010000 $
b111010000 t
0$"
0K
b0 0
b0 R
b11000 %
b11000 =
0I
01"
1%"
1~
b11000 5
b11000 n
0!"
03
0#"
01
b110111000 &
b110111000 <
b11010 ;
b11010 q
b11000 m
b11010 p
b110111000 ,"
b110111000 *
b110111000 r
b110111000 |
b110111000 ."
b10010 o
b0 #
b11000 &"
b11000 0"
b1001011010000000000001100000 3"
b10010110100000000000011000 ""
b10010110100000000000011000 /"
b11000 @
b101011 A
b0 j
b0 i
b10101110010110100000000000011000 2
b10101110010110100000000000011000 y
b11000010100100 .
b11000010100100 z
b11000010100100 ("
b11000010100100 5"
b11000010100100 2"
b0 k
b0 \
b0 _
b10100000 '"
b11000010100100 4"
b11000010100000 ,
b11000010100000 h
b11000010100000 v
b11000010100000 )"
b11000010100000 -"
b0 Y
b0 )
b0 `
b0 s
1!
#66000
0!
#67000
1'
b10 9
b10 >
b10 V
1K
01"
1%"
0!"
03
04
b1 8
b1 U
b100011100 u
0/
b100011100 %
b100011100 =
0}
b100011100 $
b100011100 t
0N
1$"
0~
b100011100 :
b100011100 ?
b100011100 W
b100011100 5
b100011100 n
1#"
11
b0 &
b0 <
b100011100 m
b0 ,"
b0 *
b0 r
b0 |
b0 ."
b0 o
b100 #
b100011100 &"
b100011100 0"
b11010000000010001110000 3"
b110100000000100011100 ""
b110100000000100011100 /"
b11100 @
b1101 A
b110100000110100000000100011100 2
b110100000110100000000100011100 y
b11000010101000 .
b11000010101000 z
b11000010101000 ("
b11000010101000 5"
b11000010101000 2"
b10100100 '"
b11000010101000 4"
b11000010100100 ,
b11000010100100 h
b11000010100100 v
b11000010100100 )"
b11000010100100 -"
1!
#68000
0!
#69000
0'
14
1/
b100110100 :
b100110100 ?
b100110100 W
1N
b100110100 u
1}
b0 9
b0 >
b0 V
b100110100 $
b100110100 t
0$"
0K
b0 0
b0 R
b11000 %
b11000 =
0I
01"
1%"
1~
b11000 5
b11000 n
0!"
03
0#"
01
b100011100 &
b100011100 <
b10010 ;
b10010 q
b11000 m
b10010 p
b100011100 ,"
b100011100 *
b100011100 r
b100011100 |
b100011100 ."
b11010 o
b0 #
b11000 &"
b11000 0"
b1101010010000000000001100000 3"
b11010100100000000000011000 ""
b11010100100000000000011000 /"
b11000 @
b101011 A
b110111000 j
b10111000 i
b10101111010100100000000000011000 2
b10101111010100100000000000011000 y
b11000010101100 .
b11000010101100 z
b11000010101100 ("
b11000010101100 5"
b11000010101100 2"
b110111000 k
b1 \
b10111000 _
b10101000 '"
b11000010101100 4"
b11000010101000 ,
b11000010101000 h
b11000010101000 v
b11000010101000 )"
b11000010101000 -"
b110111000 Y
b110111000 )
b110111000 `
b110111000 s
1!
#70000
0!
#71000
1'
b10 9
b10 >
b10 V
1K
01"
1%"
0!"
03
04
b1 8
b1 U
b10010100 u
0/
b10010100 %
b10010100 =
0}
b10010100 $
b10010100 t
0N
b0 j
1$"
0~
b10010100 :
b10010100 ?
b10010100 W
b10010100 5
b10010100 n
b0 k
b0 \
b0 _
1#"
11
b0 &
b0 <
b10111 ;
b10111 q
b0 i
b0 e
b0 c
b10010100 m
b0 Y
b0 )
b0 `
b0 s
b10111 p
b0 ,"
b0 *
b0 r
b0 |
b0 ."
b0 o
b10 #
b10010100 &"
b10010100 0"
b10111000000001001010000 3"
b101110000000010010100 ""
b101110000000010010100 /"
b10100 @
b1101 A
b0 a
b0 f
b0 +
b0 g
b110100000101110000000010010100 2
b110100000101110000000010010100 y
b11000010110000 .
b11000010110000 z
b11000010110000 ("
b11000010110000 5"
b11000010110000 2"
b0 Z
b0 [
b10101100 '"
b11000010110000 4"
b11000010101100 ,
b11000010101100 h
b11000010101100 v
b11000010101100 )"
b11000010101100 -"
1!
#72000
0!
#73000
0'
14
1/
b10100100 :
b10100100 ?
b10100100 W
1N
b10100100 u
1}
b0 9
b0 >
b0 V
b10100100 $
b10100100 t
0$"
0K
b0 0
b0 R
b10000 %
b10000 =
0I
01"
1%"
1~
b10000 5
b10000 n
b10101010 \
0!"
03
0#"
01
b10010100 &
b10010100 <
b10011 ;
b10011 q
b10000 m
b10011 p
b10010100 ,"
b10010100 *
b10010100 r
b10010100 |
b10010100 ."
b10111 o
b0 #
b10000 &"
b10000 0"
b1011110011000000000001000000 3"
b10111100110000000000010000 ""
b10111100110000000000010000 /"
b10000 @
b101011 A
b1010101000010100 j
b10100 i
b10101110111100110000000000010000 2
b10101110111100110000000000010000 y
b11000010110100 .
b11000010110100 z
b11000010110100 ("
b11000010110100 5"
b11000010110100 2"
b1010101000010100 k
b10100 _
b10110000 '"
b11000010110100 4"
b11000010110000 ,
b11000010110000 h
b11000010110000 v
b11000010110000 )"
b11000010110000 -"
b1010101000010100 Y
b1010101000010100 )
b1010101000010100 `
b1010101000010100 s
1!
#74000
0!
