P5/P5_test_1.0/P5_test/src1/mips_tb.vcd
$date
	Sun Nov 20 22:33:10 2022
$end
$version
	Icarus Verilog
$end
$timescale
	1ps
$end
$scope module mips_tb $end
$var reg 1 ! clk $end
$var reg 1 " reset $end
$scope module uut $end
$var wire 5 # A1_D [4:0] $end
$var wire 5 $ A2_D [4:0] $end
$var wire 32 % Reg_D [31:0] $end
$var wire 1 ! clk $end
$var wire 1 " reset $end
$var wire 16 & offset_D [15:0] $end
$var wire 26 ' instr_index_D [25:0] $end
$var wire 5 ( Write_Addr [4:0] $end
$var wire 32 ) WD_WB [31:0] $end
$var wire 32 * WD_DM_WB [31:0] $end
$var wire 1 + WD_DM_Sel $end
$var wire 32 , WD_DM_M [31:0] $end
$var wire 32 - V2 [31:0] $end
$var wire 32 . V1 [31:0] $end
$var wire 2 / Tnew_M [1:0] $end
$var wire 2 0 Tnew_E [1:0] $end
$var wire 2 1 SrcB_Sel_E [1:0] $end
$var wire 32 2 SrcB_E [31:0] $end
$var wire 2 3 SrcA_Sel_E [1:0] $end
$var wire 32 4 SrcA_E [31:0] $end
$var wire 1 5 Regwrite_WB $end
$var wire 1 6 Regwrite_M $end
$var wire 1 7 Regwrite_E $end
$var wire 1 8 Regwrite_D $end
$var wire 2 9 RegDst_D [1:0] $end
$var wire 32 : RD_WB [31:0] $end
$var wire 32 ; RD_M [31:0] $end
$var wire 2 < RD2_Sel_D_reg [1:0] $end
$var wire 2 = RD2_Sel_D [1:0] $end
$var wire 32 > RD2_M [31:0] $end
$var wire 2 ? RD2_FW_Sel_E [1:0] $end
$var wire 32 @ RD2_FW_E [31:0] $end
$var wire 32 A RD2_E [31:0] $end
$var wire 32 B RD2_D [31:0] $end
$var wire 2 C RD1_Sel_D_reg [1:0] $end
$var wire 2 D RD1_Sel_D [1:0] $end
$var wire 32 E RD1_E [31:0] $end
$var wire 32 F RD1_D [31:0] $end
$var wire 1 G PC_write $end
$var wire 32 H PC_WB [31:0] $end
$var wire 32 I PC_M [31:0] $end
$var wire 32 J PC_F [31:0] $end
$var wire 32 K PC_E [31:0] $end
$var wire 32 L PC_D [31:0] $end
$var wire 5 M Num_use_rt [4:0] $end
$var wire 5 N Num_use_rs [4:0] $end
$var wire 2 O NPCop_D [1:0] $end
$var wire 1 P Memwrite_M $end
$var wire 1 Q Memwrite_E $end
$var wire 1 R Memwrite_D $end
$var wire 2 S MemtoReg_WB [1:0] $end
$var wire 1 T Judge_D $end
$var wire 32 U Instr_WB [31:0] $end
$var wire 32 V Instr_M [31:0] $end
$var wire 32 W Instr_F [31:0] $end
$var wire 32 X Instr_E [31:0] $end
$var wire 32 Y Instr_D [31:0] $end
$var wire 1 Z IF_ID_en $end
$var wire 1 [ ID_EX_clr $end
$var wire 1 \ EXTop_D $end
$var wire 32 ] EXTImm_E [31:0] $end
$var wire 32 ^ EXTImm_D [31:0] $end
$var wire 2 _ DMop_M [1:0] $end
$var wire 3 ` CMPop_D [2:0] $end
$var wire 2 a ALUsrc_E [1:0] $end
$var wire 32 b ALUsrc0_E [31:0] $end
$var wire 32 c ALUresult_WB [31:0] $end
$var wire 32 d ALUresult_M [31:0] $end
$var wire 32 e ALUresult_E [31:0] $end
$var wire 3 f ALUctrl_E [2:0] $end
$var wire 5 g A3_WB [4:0] $end
$var wire 5 h A3_M [4:0] $end
$var wire 5 i A3_E [4:0] $end
$var wire 5 j A3_D [4:0] $end
$var wire 5 k A2_M [4:0] $end
$var wire 5 l A2_E [4:0] $end
$var wire 5 m A1_E [4:0] $end
$scope module _alu_E $end
$var wire 32 n SrcA [31:0] $end
$var wire 32 o SrcB [31:0] $end
$var wire 5 p s [4:0] $end
$var wire 3 q ALUctrl [2:0] $end
$var reg 32 r ALUresult [31:0] $end
$upscope $end
$scope module _cmp $end
$var wire 32 s RD1 [31:0] $end
$var wire 32 t RD2 [31:0] $end
$var wire 1 T Judge $end
$var wire 3 u CMPop [2:0] $end
$upscope $end
$scope module _ctrl_D $end
$var wire 1 \ EXTop $end
$var wire 6 v Func [5:0] $end
$var wire 1 R Memwrite $end
$var wire 6 w OP [5:0] $end
$var wire 1 x R $end
$var wire 1 8 Regwrite $end
$var wire 1 y add $end
$var wire 1 z beq $end
$var wire 1 { jal $end
$var wire 1 | jr $end
$var wire 1 } lui $end
$var wire 1 ~ lw $end
$var wire 1 !" ori $end
$var wire 1 "" sub $end
$var wire 1 #" sw $end
$var wire 1 $" lrm $end
$var wire 1 %" j $end
$var wire 2 &" RegDst [1:0] $end
$var wire 2 '" NPCop [1:0] $end
$var wire 2 (" MemtoReg [1:0] $end
$var wire 2 )" DMop [1:0] $end
$var wire 3 *" CMPop [2:0] $end
$var wire 2 +" ALUsrc [1:0] $end
$var wire 3 ," ALUctrl [2:0] $end
$upscope $end
$scope module _ctrl_E $end
$var wire 1 -" EXTop $end
$var wire 6 ." Func [5:0] $end
$var wire 1 Q Memwrite $end
$var wire 6 /" OP [5:0] $end
$var wire 1 0" R $end
$var wire 1 7 Regwrite $end
$var wire 1 1" add $end
$var wire 1 2" beq $end
$var wire 1 3" jal $end
$var wire 1 4" jr $end
$var wire 1 5" lui $end
$var wire 1 6" lw $end
$var wire 1 7" ori $end
$var wire 1 8" sub $end
$var wire 1 9" sw $end
$var wire 1 :" lrm $end
$var wire 1 ;" j $end
$var wire 2 <" RegDst [1:0] $end
$var wire 2 =" NPCop [1:0] $end
$var wire 2 >" MemtoReg [1:0] $end
$var wire 2 ?" DMop [1:0] $end
$var wire 3 @" CMPop [2:0] $end
$var wire 2 A" ALUsrc [1:0] $end
$var wire 3 B" ALUctrl [2:0] $end
$upscope $end
$scope module _ctrl_M $end
$var wire 1 C" EXTop $end
$var wire 6 D" Func [5:0] $end
$var wire 1 P Memwrite $end
$var wire 6 E" OP [5:0] $end
$var wire 1 F" R $end
$var wire 1 6 Regwrite $end
$var wire 1 G" add $end
$var wire 1 H" beq $end
$var wire 1 I" jal $end
$var wire 1 J" jr $end
$var wire 1 K" lui $end
$var wire 1 L" lw $end
$var wire 1 M" ori $end
$var wire 1 N" sub $end
$var wire 1 O" sw $end
$var wire 1 P" lrm $end
$var wire 1 Q" j $end
$var wire 2 R" RegDst [1:0] $end
$var wire 2 S" NPCop [1:0] $end
$var wire 2 T" MemtoReg [1:0] $end
$var wire 2 U" DMop [1:0] $end
$var wire 3 V" CMPop [2:0] $end
$var wire 2 W" ALUsrc [1:0] $end
$var wire 3 X" ALUctrl [2:0] $end
$upscope $end
$scope module _dm $end
$var wire 2 Y" DMop [1:0] $end
$var wire 32 Z" Data0 [31:0] $end
$var wire 1 P Memwrite $end
$var wire 32 [" RD0 [31:0] $end
$var wire 32 \" RD_ram [31:0] $end
$var wire 32 ]" WD [31:0] $end
$var wire 1 ! clk $end
$var wire 1 " reset $end
$var wire 8 ^" WD8_15 [7:0] $end
$var wire 8 _" WD24_31 [7:0] $end
$var wire 8 `" WD16_23 [7:0] $end
$var wire 8 a" WD0_7 [7:0] $end
$var wire 8 b" RD8_15 [7:0] $end
$var wire 8 c" RD24_31 [7:0] $end
$var wire 32 d" RD2 [31:0] $end
$var wire 8 e" RD16_23 [7:0] $end
$var wire 32 f" RD1 [31:0] $end
$var wire 8 g" RD0_7 [7:0] $end
$var wire 32 h" RD [31:0] $end
$var wire 32 i" PC [31:0] $end
$var wire 32 j" Data2 [31:0] $end
$var wire 32 k" Data1 [31:0] $end
$var wire 32 l" Data [31:0] $end
$var wire 32 m" A [31:0] $end
$var integer 32 n" i [31:0] $end
$upscope $end
$scope module _dm_wb $end
$var wire 5 o" A3_M [4:0] $end
$var wire 32 p" RD_M [31:0] $end
$var wire 32 q" WD_DM_M [31:0] $end
$var wire 1 ! clk $end
$var wire 1 " reset $end
$var wire 32 r" PC_M [31:0] $end
$var wire 32 s" Instr_M [31:0] $end
$var wire 32 t" ALUresult_M [31:0] $end
$var reg 5 u" A3_WB [4:0] $end
$var reg 32 v" ALUresult_WB [31:0] $end
$var reg 32 w" Instr_WB [31:0] $end
$var reg 32 x" PC_WB [31:0] $end
$var reg 32 y" RD_WB [31:0] $end
$var reg 32 z" WD_DM_WB [31:0] $end
$upscope $end
$scope module _ex_dm $end
$var wire 32 {" ALUresult_E [31:0] $end
$var wire 32 |" RD2_E [31:0] $end
$var wire 1 ! clk $end
$var wire 1 " reset $end
$var wire 32 }" PC_E [31:0] $end
$var wire 32 ~" Instr_E [31:0] $end
$var wire 5 !# A3_E [4:0] $end
$var wire 5 "# A2_E [4:0] $end
$var reg 5 ## A2_M [4:0] $end
$var reg 5 $# A3_M [4:0] $end
$var reg 32 %# ALUresult_M [31:0] $end
$var reg 32 &# Instr_M [31:0] $end
$var reg 32 '# PC_M [31:0] $end
$var reg 32 (# RD2_M [31:0] $end
$upscope $end
$scope module _ext $end
$var wire 1 \ EXTop $end
$var wire 16 )# Imm [15:0] $end
$var wire 32 *# EXTImm [31:0] $end
$upscope $end
$scope module _grf $end
$var wire 5 +# A1 [4:0] $end
$var wire 5 ,# A2 [4:0] $end
$var wire 5 -# A3 [4:0] $end
$var wire 32 .# PC [31:0] $end
$var wire 32 /# WD [31:0] $end
$var wire 1 ! clk $end
$var wire 1 " reset $end
$var wire 32 0# wd [31:0] $end
$var wire 1 5 Regwrite $end
$var wire 32 1# RD2 [31:0] $end
$var wire 32 2# RD1 [31:0] $end
$var integer 32 3# i [31:0] $end
$upscope $end
$scope module _hazard $end
$var wire 1 [ ID_EX_clr $end
$var wire 1 Z IF_ID_en $end
$var wire 32 4# Instr_M [31:0] $end
$var wire 5 5# Num_use_rs_D [4:0] $end
$var wire 5 6# Num_use_rt_D [4:0] $end
$var wire 1 G PCwrite $end
$var wire 1 7 Regwrite_E $end
$var wire 1 6 Regwrite_M $end
$var wire 2 7# Tnew_E_ [1:0] $end
$var wire 2 8# Tnew_M_ [1:0] $end
$var wire 1 ! clk $end
$var wire 1 9# stall $end
$var wire 5 :# rt [4:0] $end
$var wire 5 ;# rs [4:0] $end
$var wire 5 <# rd [4:0] $end
$var wire 2 =# Tuse_rt [1:0] $end
$var wire 2 ># Tuse_rs [1:0] $end
$var wire 2 ?# Tnew_M [1:0] $end
$var wire 2 @# Tnew_E [1:0] $end
$var wire 5 A# Num_use_rt [4:0] $end
$var wire 5 B# Num_use_rs [4:0] $end
$var wire 5 C# Num_new_M [4:0] $end
$var wire 5 D# Num_new_E [4:0] $end
$var wire 32 E# Instr_E [31:0] $end
$var wire 32 F# Instr_D [31:0] $end
$scope module hazard_e $end
$var wire 5 G# rt [4:0] $end
$var wire 5 H# rs [4:0] $end
$var wire 5 I# rd [4:0] $end
$var wire 32 J# Instr_E [31:0] $end
$var reg 5 K# Num_new_E [4:0] $end
$var reg 2 L# Tnew_E [1:0] $end
$upscope $end
$scope module hazard_m $end
$var wire 5 M# Num_new_E [4:0] $end
$var wire 2 N# Tnew_E [1:0] $end
$var wire 1 ! clk $end
$var reg 5 O# Num_new_M [4:0] $end
$var reg 2 P# Tnew_M [1:0] $end
$upscope $end
$upscope $end
$scope module _id_ex $end
$var wire 5 Q# A1_D [4:0] $end
$var wire 5 R# A2_D [4:0] $end
$var wire 5 S# A3_D [4:0] $end
$var wire 32 T# EXTImm_D [31:0] $end
$var wire 1 [ ID_EX_clr $end
$var wire 32 U# RD1_D [31:0] $end
$var wire 2 V# RD1_Sel_D [1:0] $end
$var wire 32 W# RD2_D [31:0] $end
$var wire 2 X# RD2_Sel_D [1:0] $end
$var wire 1 ! clk $end
$var wire 1 " reset $end
$var wire 32 Y# PC_D [31:0] $end
$var wire 32 Z# Instr_D [31:0] $end
$var reg 5 [# A1_E [4:0] $end
$var reg 5 \# A2_E [4:0] $end
$var reg 5 ]# A3_E [4:0] $end
$var reg 32 ^# EXTImm_E [31:0] $end
$var reg 32 _# Instr_E [31:0] $end
$var reg 32 `# PC_E [31:0] $end
$var reg 32 a# RD1_E [31:0] $end
$var reg 2 b# RD1_Sel_D_reg [1:0] $end
$var reg 32 c# RD2_E [31:0] $end
$var reg 2 d# RD2_Sel_D_reg [1:0] $end
$upscope $end
$scope module _if_id $end
$var wire 1 Z IF_ID_en $end
$var wire 1 ! clk $end
$var wire 1 " reset $end
$var wire 32 e# PC_F [31:0] $end
$var wire 32 f# Instr_F [31:0] $end
$var reg 32 g# Instr_D [31:0] $end
$var reg 32 h# PC_D [31:0] $end
$upscope $end
$scope module _ifu $end
$var wire 32 i# Instr [31:0] $end
$var wire 1 T Judge $end
$var wire 2 j# NPCop [1:0] $end
$var wire 32 k# PC_in [31:0] $end
$var wire 1 G PCwrite $end
$var wire 32 l# Reg [31:0] $end
$var wire 1 ! clk $end
$var wire 26 m# instr_index [25:0] $end
$var wire 16 n# offset [15:0] $end
$var wire 1 " reset $end
$var wire 32 o# pc [31:0] $end
$var wire 1 p# PC_4 $end
$var wire 32 q# NPC_wire [31:0] $end
$var reg 32 r# PC [31:0] $end
$var integer 32 s# i [31:0] $end
$scope module npc $end
$var wire 1 T Judge $end
$var wire 2 t# NPCop [1:0] $end
$var wire 32 u# O4 [31:0] $end
$var wire 32 v# PC [31:0] $end
$var wire 32 w# PC_in [31:0] $end
$var wire 32 x# Reg [31:0] $end
$var wire 26 y# instr_index [25:0] $end
$var wire 16 z# offset [15:0] $end
$var wire 32 {# PC_8 [31:0] $end
$var wire 32 |# O3 [31:0] $end
$var wire 32 }# O2 [31:0] $end
$var wire 32 ~# O1 [31:0] $end
$var wire 32 !$ NPC [31:0] $end
$upscope $end
$upscope $end
$scope module ctrl_wb $end
$var wire 1 "$ EXTop $end
$var wire 6 #$ Func [5:0] $end
$var wire 1 $$ Memwrite $end
$var wire 6 %$ OP [5:0] $end
$var wire 1 &$ R $end
$var wire 1 5 Regwrite $end
$var wire 1 '$ add $end
$var wire 1 ($ beq $end
$var wire 1 )$ jal $end
$var wire 1 *$ jr $end
$var wire 1 +$ lui $end
$var wire 1 ,$ lw $end
$var wire 1 -$ ori $end
$var wire 1 .$ sub $end
$var wire 1 /$ sw $end
$var wire 1 0$ lrm $end
$var wire 1 1$ j $end
$var wire 2 2$ RegDst [1:0] $end
$var wire 2 3$ NPCop [1:0] $end
$var wire 2 4$ MemtoReg [1:0] $end
$var wire 2 5$ DMop [1:0] $end
$var wire 3 6$ CMPop [2:0] $end
$var wire 2 7$ ALUsrc [1:0] $end
$var wire 3 8$ ALUctrl [2:0] $end
$upscope $end
$upscope $end
$upscope $end
$enddefinitions $end
#0
$dumpvars
b0 8$
b0 7$
b0 6$
b0 5$
b0 4$
b0 3$
b0 2$
01$
00$
0/$
0.$
0-$
0,$
0+$
0*$
0)$
0($
0'$
1&$
b0 %$
0$$
b0 #$
0"$
b11000000000100 !$
b11000000000100 ~#
b0 }#
b11000000000100 |#
b11000000001000 {#
b0 z#
b0 y#
b0 x#
b11000000000000 w#
b11000000000000 v#
b0 u#
b0 t#
b1000000000000 s#
b11000000000000 r#
b11000000000100 q#
0p#
b0 o#
b0 n#
b0 m#
b0 l#
b11000000000000 k#
b0 j#
b110100000010000000000000001000 i#
b11000000000000 h#
b0 g#
b110100000010000000000000001000 f#
b11000000000000 e#
b0 d#
b0 c#
b0 b#
b0 a#
b11000000000000 `#
b0 _#
b0 ^#
b0 ]#
b0 \#
b0 [#
b0 Z#
b11000000000000 Y#
b0 X#
b0 W#
b0 V#
b0 U#
b0 T#
b0 S#
b0 R#
b0 Q#
b0 P#
bz O#
bx N#
bx M#
bx L#
bx K#
b0 J#
b0 I#
b0 H#
b0 G#
b0 F#
b0 E#
bx D#
bz C#
b0 B#
b0 A#
bx @#
b0 ?#
b0 >#
b0 =#
b0 <#
b0 ;#
b0 :#
09#
b0 8#
bx 7#
b0 6#
b0 5#
b0 4#
b100000 3#
b0 2#
b0 1#
b0 0#
b0 /#
b11000000000000 .#
b0 -#
b0 ,#
b0 +#
b0 *#
b0 )#
b0 (#
b11000000000000 '#
b0 &#
b0 %#
b0 $#
b0 ##
b0 "#
b0 !#
b0 ~"
b11000000000000 }"
b0 |"
b0 {"
b0 z"
b0 y"
b11000000000000 x"
b0 w"
b0 v"
b0 u"
b0 t"
b0 s"
b11000000000000 r"
b0 q"
b0 p"
b0 o"
b1000000000000 n"
b0 m"
b0 l"
b0 k"
b0 j"
b11000000000000 i"
b0 h"
b0 g"
b0 f"
b0 e"
b0 d"
b0 c"
b0 b"
b0 a"
b0 `"
b0 _"
b0 ^"
b0 ]"
b0 \"
b0 ["
b0 Z"
b0 Y"
b0 X"
b0 W"
b0 V"
b0 U"
b0 T"
b0 S"
b0 R"
0Q"
0P"
0O"
0N"
0M"
0L"
0K"
0J"
0I"
0H"
0G"
1F"
b0 E"
b0 D"
0C"
b0 B"
b0 A"
b0 @"
b0 ?"
b0 >"
b0 ="
b0 <"
0;"
0:"
09"
08"
07"
06"
05"
04"
03"
02"
01"
10"
b0 /"
b0 ."
0-"
b0 ,"
b0 +"
b0 *"
b0 )"
b0 ("
b0 '"
b0 &"
0%"
0$"
0#"
0""
0!"
0~
0}
0|
0{
0z
0y
1x
b0 w
b0 v
b0 u
b0 t
b0 s
b0 r
b0 q
b0 p
b0 o
b0 n
b0 m
b0 l
b0 k
b0 j
b0 i
b0 h
b0 g
b0 f
b0 e
b0 d
b0 c
b0 b
b0 a
b0 `
b0 _
b0 ^
b0 ]
0\
0[
1Z
b0 Y
b0 X
b110100000010000000000000001000 W
b0 V
b0 U
1T
b0 S
0R
0Q
0P
b0 O
b0 N
b0 M
b11000000000000 L
b11000000000000 K
b11000000000000 J
b11000000000000 I
b11000000000000 H
1G
b0 F
b0 E
b0 D
b0 C
b0 B
b0 A
b0 @
b0 ?
b0 >
b0 =
b0 <
b0 ;
b0 :
b0 9
08
07
06
05
b0 4
b0 3
b0 2
b0 1
bx 0
b0 /
b0 .
b0 -
b0 ,
0+
b0 *
b0 )
b0 (
b0 '
b0 &
b0 %
b0 $
b0 #
1"
0!
$end
#1000
bx C#
bx O#
bx /
bx 8#
bx ?#
bx P#
b100000 3#
b1000000000000 n"
1!
#2000
0!
#3000
b1000000000000 n"
b100000 3#
1!
#4000
0!
#5000
b100000 3#
b1000000000000 n"
1!
#6000
0!
#7000
b1000000000000 n"
b100000 3#
1!
#8000
0!
#9000
b100000 3#
b1000000000000 n"
1!
#10000
0!
#11000
b1000000000000 n"
b100000 3#
1!
#12000
0!
#13000
b100000 3#
b1000000000000 n"
1!
#14000
0!
#15000
b1000000000000 n"
b100000 3#
1!
#16000
0!
#17000
b100000 3#
b1000000000000 n"
1!
#18000
0!
#19000
b1000000000000 n"
b100000 3#
1!
#20000
0!
0"
#21000
b1000 j
b1000 S#
18
b1 +"
b0 O
b0 '"
b0 j#
b0 t#
b10 ,"
0|
0x
1!"
b1 >#
b1000 :#
b11000000100100 |#
b1000 ^
b1000 *#
b1000 T#
b1000000000100100000100000 W
b1000000000100100000100000 f#
b1000000000100100000100000 i#
b11000000001000 q#
b11000000001000 !$
b1000000000000000100000 }#
b10000000000000001000 '
b10000000000000001000 m#
b10000000000000001000 y#
b1000 &
b1000 n#
b1000 z#
b1000 )#
b1000 ,#
b1000 v
b1101 w
b100 o#
b11000000001000 ~#
b11000000000100 J
b11000000000100 e#
b11000000000100 r#
b11000000000100 v#
b110100000010000000000000001000 Y
b110100000010000000000000001000 F#
b110100000010000000000000001000 Z#
b110100000010000000000000001000 g#
1!
#22000
0!
#23000
b1 9
b1 &"
b1000 e
b1000 r
b1000 {"
b1000 2
b1000 o
1y
b1000 b
17
b1 a
b1 A"
1x
18
b0 +"
b0 ="
b10 f
b10 q
b10 B"
04"
00"
17"
b0 ,"
b1 =#
b1000 #
b1000 Q#
b1000 N
b1000 5#
b1000 B#
0!"
b1000 G#
b1001 <#
b0 :#
b1000 ;#
b1001 j
b1001 S#
b100100000100000 ^
b100100000100000 *#
b100100000100000 T#
b1000 ."
b1101 /"
b1000 D#
b1000 K#
b1000 M#
b1 0
b1 7#
b1 @#
b1 L#
b1 N#
b100000000010010000010000000 }#
b1000000000100100000100000 '
b1000000000100100000100000 m#
b1000000000100100000100000 y#
b100100000100000 &
b100100000100000 n#
b100100000100000 z#
b100100000100000 )#
b0 ,#
b1000 +#
b100000 v
b0 w
b10101000010001000 |#
b110100000010000000000000001000 W
b110100000010000000000000001000 f#
b110100000010000000000000001000 i#
b11000000001100 q#
b11000000001100 !$
b1000 ]
b1000 ^#
b1000 i
b1000 !#
b1000 ]#
b110100000010000000000000001000 X
b110100000010000000000000001000 ~"
b110100000010000000000000001000 E#
b110100000010000000000000001000 J#
b110100000010000000000000001000 _#
b1000000000100100000100000 Y
b1000000000100100000100000 F#
b1000000000100100000100000 Z#
b1000000000100100000100000 g#
b11000000001100 {#
b11000000000100 L
b11000000000100 Y#
b11000000000100 h#
b11000000000100 k#
b11000000000100 w#
b1000 o#
b11000000001100 ~#
b11000000001000 J
b11000000001000 e#
b11000000001000 r#
b11000000001000 v#
1!
#24000
0!
#25000
b1000 4
b1000 n
b10 3
b1 <"
11"
b1 +"
16
b1 W"
b0 O
b0 '"
b0 j#
b0 t#
b0 9
b0 &"
0|
10"
17
b0 a
b0 A"
0y
b10 ,"
b0 S"
b10 X"
0x
1!"
0J"
0F"
1M"
b1000 e
b1000 r
b1000 {"
b0 f
b0 q
b0 B"
b0 =#
b1 >#
b0 #
b0 Q#
b0 N
b0 5#
b0 B#
b1000 j
b1000 S#
b0 2
b0 o
07"
b0 <#
b1000 :#
b0 ;#
b1000 ^
b1000 *#
b1000 T#
b0 b
b1001 I#
b0 G#
b1000 H#
b110100000010100000000000001100 W
b110100000010100000000000001100 f#
b110100000010100000000000001100 i#
b11000000010000 q#
b11000000010000 !$
b1000000000000000100000 }#
b10000000000000001000 '
b10000000000000001000 m#
b10000000000000001000 y#
b1000 &
b1000 n#
b1000 z#
b1000 )#
b1000 ,#
b0 +#
b1000 v
b1101 w
b11000000101100 |#
b100000 ."
b0 /"
b1001 D#
b1001 K#
b1001 M#
b1000 D"
b1101 E"
b1000 (
b1000 o"
b1100 o#
b11000000010000 ~#
b11000000001100 J
b11000000001100 e#
b11000000001100 r#
b11000000001100 v#
b110100000010000000000000001000 Y
b110100000010000000000000001000 F#
b110100000010000000000000001000 Z#
b110100000010000000000000001000 g#
b11000000010000 {#
b11000000001000 L
b11000000001000 Y#
b11000000001000 h#
b11000000001000 k#
b11000000001000 w#
b1000 m
b1000 [#
b100100000100000 ]
b100100000100000 ^#
b1001 i
b1001 !#
b1001 ]#
b11000000000100 K
b11000000000100 }"
b11000000000100 `#
b1000000000100100000100000 X
b1000000000100100000100000 ~"
b1000000000100100000100000 E#
b1000000000100100000100000 J#
b1000000000100100000100000 _#
b1000 d
b1000 m"
b1000 t"
b1000 %#
b110100000010000000000000001000 V
b110100000010000000000000001000 s"
b110100000010000000000000001000 &#
b110100000010000000000000001000 4#
b1000 h
b1000 $#
b1000 C#
b1000 O#
b0 /
b0 8#
b0 ?#
b0 P#
1!
#26000
0!
#27000
b1 R"
1G"
b1000 2
b1000 o
b1000 b
15
b1 7$
b1 a
b1 A"
b0 ="
b0 <"
04"
1F"
16
b0 W"
b0 3$
b10 8$
b1000 e
b1000 r
b1000 {"
01"
b10 f
b10 q
b10 B"
0*$
0&$
1-$
b0 4
b0 n
00"
17"
b0 3
b0 X"
0M"
b1000 0#
b0 I#
b1000 G#
b0 H#
b1010 :#
b1010 j
b1010 S#
b1100 ^
b1100 *#
b1100 T#
b1000 )
b1000 /#
b1000 #$
b1101 %$
b100000 D"
b0 E"
b1001 (
b1001 o"
b1000 ."
b1101 /"
b1000 D#
b1000 K#
b1000 M#
b1010000000000000110000 }#
b10100000000000001100 '
b10100000000000001100 m#
b10100000000000001100 y#
b1100 &
b1100 n#
b1100 z#
b1100 )#
b1010 ,#
b1100 v
b11000001000000 |#
b1000000000100100000100000 W
b1000000000100100000100000 f#
b1000000000100100000100000 i#
b11000000010100 q#
b11000000010100 !$
b1001 C#
b1001 O#
b1000 c
b1000 v"
b110100000010000000000000001000 U
b110100000010000000000000001000 w"
b1000 g
b1000 u"
b1000 -#
b1000000000100100000100000 V
b1000000000100100000100000 s"
b1000000000100100000100000 &#
b1000000000100100000100000 4#
b1001 h
b1001 $#
b11000000000100 I
b11000000000100 i"
b11000000000100 r"
b11000000000100 '#
b0 m
b0 [#
b1000 ]
b1000 ^#
b1000 i
b1000 !#
b1000 ]#
b11000000001000 K
b11000000001000 }"
b11000000001000 `#
b110100000010000000000000001000 X
b110100000010000000000000001000 ~"
b110100000010000000000000001000 E#
b110100000010000000000000001000 J#
b110100000010000000000000001000 _#
b110100000010100000000000001100 Y
b110100000010100000000000001100 F#
b110100000010100000000000001100 Z#
b110100000010100000000000001100 g#
b11000000010100 {#
b11000000001100 L
b11000000001100 Y#
b11000000001100 h#
b11000000001100 k#
b11000000001100 w#
b10000 o#
b11000000010100 ~#
b11000000010000 J
b11000000010000 e#
b11000000010000 r#
b11000000010000 v#
1!
#28000
0!
#29000
b1 9
b1 &"
b1 2$
1y
1'$
b1 W"
b0 S"
b0 R"
0J"
b1 D
b1 V#
1x
18
b0 +"
1&$
15
b0 7$
0G"
b10 X"
0F"
1M"
0T
b0 ,"
b1100 e
b1100 r
b1100 {"
b0 8$
b1 =#
b1000 #
b1000 Q#
b1000 N
b1000 5#
b1000 B#
b1000 u#
b1000 %
b1000 l#
b1000 x#
b1000 F
b1000 s
b1000 U#
0!"
b1100 2
b1100 o
b1010 D#
b1010 K#
b1010 M#
0-$
b1001 <#
b0 :#
b1000 ;#
b1001 j
b1001 S#
b100100000100000 ^
b100100000100000 *#
b100100000100000 T#
b1000 .
b1000 2#
b1100 b
b1010 G#
b110100000010000000000000001000 W
b110100000010000000000000001000 f#
b110100000010000000000000001000 i#
b11000000011000 q#
b11000000011000 !$
b100000000010010000010000000 }#
b1000000000100100000100000 '
b1000000000100100000100000 m#
b1000000000100100000100000 y#
b100100000100000 &
b100100000100000 n#
b100100000100000 z#
b100100000100000 )#
b0 ,#
b1000 +#
b100000 v
b0 w
b11000000011000 |#
b1100 ."
b1000 D"
b1101 E"
b1000 (
b1000 o"
b100000 #$
b0 %$
b10100 o#
b11000000011000 ~#
b11000000010100 J
b11000000010100 e#
b11000000010100 r#
b11000000010100 v#
b1000000000100100000100000 Y
b1000000000100100000100000 F#
b1000000000100100000100000 Z#
b1000000000100100000100000 g#
b11000000011000 {#
b11000000010000 L
b11000000010000 Y#
b11000000010000 h#
b11000000010000 k#
b11000000010000 w#
b1100 ]
b1100 ^#
b1010 i
b1010 !#
b1010 ]#
b11000000001100 K
b11000000001100 }"
b11000000001100 `#
b110100000010100000000000001100 X
b110100000010100000000000001100 ~"
b110100000010100000000000001100 E#
b110100000010100000000000001100 J#
b110100000010100000000000001100 _#
b110100000010000000000000001000 V
b110100000010000000000000001000 s"
b110100000010000000000000001000 &#
b110100000010000000000000001000 4#
b1000 h
b1000 $#
b11000000001000 I
b11000000001000 i"
b11000000001000 r"
b11000000001000 '#
b1000000000100100000100000 U
b1000000000100100000100000 w"
b1001 g
b1001 u"
b1001 -#
b11000000000100 H
b11000000000100 x"
b11000000000100 .#
b1000 C#
b1000 O#
1!
#30000
0!
#31000
b1 <"
11"
b1 7$
b1 +"
b0 3$
b0 O
b0 '"
b0 j#
b0 t#
b0 2$
0*$
b0 9
b0 &"
0|
10"
17
b0 a
b0 A"
0'$
b10 8$
0y
b10 ,"
0&$
1-$
0x
1!"
b1 3
b0 D
b0 V#
b1000 e
b1000 r
b1000 {"
b0 f
b0 q
b0 B"
b0 2
b0 o
07"
b0 =#
b1 >#
b0 #
b0 Q#
b0 N
b0 5#
b0 B#
b1000 j
b1000 S#
b1000 B
b1000 t
b1000 W#
b0 u#
b0 %
b0 l#
b0 x#
b0 F
b0 s
b0 U#
b0 b
b1001 I#
b0 G#
b1000 H#
b0 <#
b1000 :#
b0 ;#
b1000 ^
b1000 *#
b1000 T#
b1000 -
b1000 1#
b0 .
b0 2#
b1000 #$
b1101 %$
b1100 D"
b1010 (
b1010 o"
b1000 4
b1000 n
b100000 ."
b0 /"
b1001 D#
b1001 K#
b1001 M#
b1000000000000000100000 }#
b10000000000000001000 '
b10000000000000001000 m#
b10000000000000001000 y#
b1000 &
b1000 n#
b1000 z#
b1000 )#
b1000 ,#
b0 +#
b1000 v
b1101 w
b110100000010100000000000001100 W
b110100000010100000000000001100 f#
b110100000010100000000000001100 i#
b11000000011100 q#
b11000000011100 !$
b11000000011100 |#
b1010 C#
b1010 O#
b110100000010000000000000001000 U
b110100000010000000000000001000 w"
b1000 g
b1000 u"
b1000 -#
b11000000001000 H
b11000000001000 x"
b11000000001000 .#
b1100 d
b1100 m"
b1100 t"
b1100 %#
b110100000010100000000000001100 V
b110100000010100000000000001100 s"
b110100000010100000000000001100 &#
b110100000010100000000000001100 4#
b1010 h
b1010 $#
b11000000001100 I
b11000000001100 i"
b11000000001100 r"
b11000000001100 '#
b1 C
b1 b#
b1000 m
b1000 [#
b100100000100000 ]
b100100000100000 ^#
b1000 E
b1000 a#
b1001 i
b1001 !#
b1001 ]#
b11000000010000 K
b11000000010000 }"
b11000000010000 `#
b1000000000100100000100000 X
b1000000000100100000100000 ~"
b1000000000100100000100000 E#
b1000000000100100000100000 J#
b1000000000100100000100000 _#
b110100000010000000000000001000 Y
b110100000010000000000000001000 F#
b110100000010000000000000001000 Z#
b110100000010000000000000001000 g#
b11000000011100 {#
b11000000010100 L
b11000000010100 Y#
b11000000010100 h#
b11000000010100 k#
b11000000010100 w#
b11000 o#
b11000000011100 ~#
b11000000011000 J
b11000000011000 e#
b11000000011000 r#
b11000000011000 v#
1!
#32000
0!
