P4/P4_test_2.0/src1/mips_tb.vcd
$date
	Mon Nov 07 10:34:34 2022
$end
$version
	Icarus Verilog
$end
$timescale
	1ps
$end
$scope module mips_tb $end
$var reg 1 ! clk $end
$var reg 1 " reset $end
$scope module uut $end
$var wire 1 ! clk $end
$var wire 1 " reset $end
$var wire 32 # s [31:0] $end
$var wire 32 $ WD [31:0] $end
$var wire 32 % SrcB [31:0] $end
$var wire 32 & SrcA [31:0] $end
$var wire 1 ' Regwrite $end
$var wire 2 ( RegDst [1:0] $end
$var wire 32 ) RD2 [31:0] $end
$var wire 32 * RD1 [31:0] $end
$var wire 32 + RD [31:0] $end
$var wire 32 , PC [31:0] $end
$var wire 2 - NPCop [1:0] $end
$var wire 32 . NPC [31:0] $end
$var wire 1 / Memwrite $end
$var wire 2 0 MemtoReg [1:0] $end
$var wire 1 1 Less $end
$var wire 1 2 Judge $end
$var wire 32 3 Instr [31:0] $end
$var wire 1 4 Equal $end
$var wire 1 5 EXTop $end
$var wire 32 6 EXTImm [31:0] $end
$var wire 2 7 DMop [1:0] $end
$var wire 3 8 CMPop [2:0] $end
$var wire 2 9 ALUsrc [1:0] $end
$var wire 3 : ALUctrl [2:0] $end
$var wire 32 ; ALUResult [31:0] $end
$var wire 5 < A3 [4:0] $end
$scope module _alu $end
$var wire 32 = SrcA [31:0] $end
$var wire 32 > SrcB [31:0] $end
$var wire 1 1 Less $end
$var wire 1 4 Equal $end
$var wire 3 ? ALUop [2:0] $end
$var wire 32 @ ALUResult [31:0] $end
$upscope $end
$scope module _cmp $end
$var wire 32 A RD2 [31:0] $end
$var wire 32 B RD1 [31:0] $end
$var wire 1 2 Judge $end
$var wire 3 C CMPop [2:0] $end
$upscope $end
$scope module _ctrl $end
$var wire 1 5 EXTop $end
$var wire 6 D Func [5:0] $end
$var wire 1 / Memwrite $end
$var wire 6 E OP [5:0] $end
$var wire 1 F R $end
$var wire 1 ' Regwrite $end
$var wire 1 G add $end
$var wire 1 H beq $end
$var wire 1 I j $end
$var wire 1 J jal $end
$var wire 1 K jr $end
$var wire 1 L lui $end
$var wire 1 M lw $end
$var wire 1 N ori $end
$var wire 1 O sub $end
$var wire 1 P sw $end
$var wire 2 Q RegDst [1:0] $end
$var wire 2 R NPCop [1:0] $end
$var wire 2 S MemtoReg [1:0] $end
$var wire 2 T DMop [1:0] $end
$var wire 3 U CMPop [2:0] $end
$var wire 2 V ALUsrc [1:0] $end
$var wire 3 W ALUctrl [2:0] $end
$upscope $end
$scope module _dm $end
$var wire 32 X A [31:0] $end
$var wire 2 Y DMop [1:0] $end
$var wire 32 Z Data0 [31:0] $end
$var wire 1 / Memwrite $end
$var wire 32 [ RD0 [31:0] $end
$var wire 32 \ RD_ram [31:0] $end
$var wire 1 ! clk $end
$var wire 1 " reset $end
$var wire 8 ] WD8_15 [7:0] $end
$var wire 8 ^ WD24_31 [7:0] $end
$var wire 8 _ WD16_23 [7:0] $end
$var wire 8 ` WD0_7 [7:0] $end
$var wire 32 a WD [31:0] $end
$var wire 8 b RD8_15 [7:0] $end
$var wire 8 c RD24_31 [7:0] $end
$var wire 32 d RD2 [31:0] $end
$var wire 8 e RD16_23 [7:0] $end
$var wire 32 f RD1 [31:0] $end
$var wire 8 g RD0_7 [7:0] $end
$var wire 32 h RD [31:0] $end
$var wire 32 i PC [31:0] $end
$var wire 32 j Data2 [31:0] $end
$var wire 32 k Data1 [31:0] $end
$var wire 32 l Data [31:0] $end
$var integer 32 m i [31:0] $end
$upscope $end
$scope module _ext $end
$var wire 1 5 EXTop $end
$var wire 16 n Imm [15:0] $end
$var wire 32 o EXTImm [31:0] $end
$upscope $end
$scope module _grf $end
$var wire 5 p A1 [4:0] $end
$var wire 5 q A2 [4:0] $end
$var wire 5 r A3 [4:0] $end
$var wire 32 s RD1 [31:0] $end
$var wire 32 t RD2 [31:0] $end
$var wire 32 u WD [31:0] $end
$var wire 1 ' WE $end
$var wire 1 ! clk $end
$var wire 1 " reset $end
$var wire 32 v wd [31:0] $end
$var wire 32 w PC [31:0] $end
$var integer 32 x i [31:0] $end
$upscope $end
$scope module _ifu $end
$var wire 32 y Instr [31:0] $end
$var wire 1 2 Judge $end
$var wire 32 z NPC [31:0] $end
$var wire 2 { NPCop [1:0] $end
$var wire 32 | Reg [31:0] $end
$var wire 1 ! clk $end
$var wire 26 } instr_index [25:0] $end
$var wire 16 ~ offset [15:0] $end
$var wire 1 " reset $end
$var wire 32 !" PC1 [31:0] $end
$var wire 32 "" NPC_wire [31:0] $end
$var reg 32 #" PC [31:0] $end
$scope module npc $end
$var wire 1 2 Judge $end
$var wire 2 $" NPCop [1:0] $end
$var wire 32 %" O4 [31:0] $end
$var wire 32 &" PC [31:0] $end
$var wire 32 '" Reg [31:0] $end
$var wire 26 (" instr_index [25:0] $end
$var wire 16 )" offset [15:0] $end
$var wire 32 *" O3 [31:0] $end
$var wire 32 +" O2 [31:0] $end
$var wire 32 ," O1 [31:0] $end
$var wire 32 -" NPC [31:0] $end
$upscope $end
$upscope $end
$upscope $end
$upscope $end
$enddefinitions $end
#0
$dumpvars
b11000000000100 -"
b11000000000100 ,"
b11101001000101111110000 +"
b0x011x0xxxxxx0100 *"
b10001011111100 )"
b111010010001011111100 ("
bx '"
b11000000000000 &"
bx %"
b0 $"
b11000000000000 #"
b11000000000100 ""
b0 !"
b10001011111100 ~
b111010010001011111100 }
bx |
b0 {
b11000000000100 z
b110100000111010010001011111100 y
b0 x
b11000000000000 w
bx1xxx1x111111xx v
bx1xxx1x111111xx u
bx t
bx s
b11101 r
b11101 q
b0 p
b10001011111100 o
b10001011111100 n
b0 m
bx l
bx k
bx j
b11000000000000 i
bx h
bx g
bx f
bx e
bx d
bx c
bx b
bx a
bx `
bx _
bx ^
bx ]
bx \
bx [
bx Z
b0 Y
bx1xxx1x111111xx X
b10 W
b1 V
b0 U
b0 T
b0 S
b0 R
b0 Q
0P
0O
1N
0M
0L
0K
0J
0I
0H
0G
0F
b1101 E
b111100 D
b0 C
bx B
bx A
bx1xxx1x111111xx @
b10 ?
b10001011111100 >
bx =
b11101 <
bx1xxx1x111111xx ;
b10 :
b1 9
b0 8
b0 7
b10001011111100 6
05
x4
b110100000111010010001011111100 3
x2
x1
b0 0
0/
b11000000000100 .
b0 -
b11000000000000 ,
bx +
bx *
bx )
b0 (
1'
bx &
b10001011111100 %
bx1xxx1x111111xx $
b1011 #
1"
0!
$end
#1000
b0 f
b0 d
b0 c
b0 e
b0 b
b0 g
b0 +
b0 h
b0 k
b0 j
b10001011111100 v
b0 [
b0 \
b10001011111100 $
b10001011111100 u
b10001011111100 ;
b10001011111100 @
b10001011111100 X
b1011101111110100 *"
b0 l
b0 ^
b0 _
b0 ]
b0 `
12
04
11
b0 &
b0 =
b0 Z
b0 )
b0 A
b0 a
b0 t
b0 %"
b0 *
b0 B
b0 s
b0 |
b0 '"
b100000 x
b1000000000000 m
1!
#2000
0!
#3000
b1000000000000 m
b100000 x
1!
#4000
0!
#5000
b100000 x
b1000000000000 m
1!
#6000
0!
#7000
b1000000000000 m
b100000 x
1!
#8000
0!
#9000
b100000 x
b1000000000000 m
1!
#10000
0!
#11000
b1000000000000 m
b100000 x
1!
#12000
0!
#13000
b100000 x
b1000000000000 m
1!
#14000
0!
#15000
b1000000000000 m
b100000 x
1!
#16000
0!
#17000
b100000 x
b1000000000000 m
1!
#18000
0!
#19000
b1000000000000 m
b100000 x
1!
#20000
0!
0"
#21000
b1100000000000 v
b1100000000000 $
b1100000000000 u
b1100000000000 ;
b1100000000000 @
b1100000000000 X
b1100000000000 %
b1100000000000 >
b1100000000000 6
b1100000000000 o
b11100 <
b11100 r
b1100000000000 n
b11100 q
b0 #
b1100000000000 ~
b1100000000000 )"
b11100000110000000000000 +"
b111000001100000000000 }
b111000001100000000000 ("
b0 D
b0 k
b0 j
b110100000111000001100000000000 3
b110100000111000001100000000000 y
b11000000001000 .
b11000000001000 z
b11000000001000 ""
b11000000001000 -"
b1001000000001000 *"
b0 l
b0 ]
b0 `
12
b100 !"
b11000000001000 ,"
b11000000000100 ,
b11000000000100 i
b11000000000100 w
b11000000000100 #"
b11000000000100 &"
b0 Z
b0 )
b0 A
b0 a
b0 t
1!
#22000
0!
#23000
b11000000000000 v
b11000000000000 $
b11000000000000 u
b11000000000000 ;
b11000000000000 @
b11000000000000 X
b11000000000000 %
b11000000000000 >
b11000000000000 6
b11000000000000 o
b11111 <
b11111 r
b0 k
b11000000000000 n
b11111 q
b11000000000000 ~
b11000000000000 )"
b11111001100000000000000 +"
b111110011000000000000 }
b111110011000000000000 ("
b0 l
b0 ]
12
b110100000111110011000000000000 3
b110100000111110011000000000000 y
b11000000001100 .
b11000000001100 z
b11000000001100 ""
b11000000001100 -"
b1111000000001100 *"
b0 Z
b0 )
b0 A
b0 a
b0 t
b1000 !"
b11000000001100 ,"
b11000000001000 ,
b11000000001000 i
b11000000001000 w
b11000000001000 #"
b11000000001000 &"
1!
#24000
0!
#25000
b111101010010100 ;
b111101010010100 @
b111101010010100 X
b1111010100101000000000000000000 v
b0 :
b0 ?
b0 W
b1111010100101000000000000000000 $
b1111010100101000000000000000000 u
0N
b11 0
b11 S
b111101010010100 %
b111101010010100 >
1L
b111101010010100 6
b111101010010100 o
b10110 <
b10110 r
b111101010010100 n
b10110 q
b1010 #
b111101010010100 ~
b111101010010100 )"
b10110011110101001010000 +"
b101100111101010010100 }
b101100111101010010100 ("
b10100 D
b1111 E
b0 k
b111100000101100111101010010100 3
b111100000101100111101010010100 y
b11000000010000 .
b11000000010000 z
b11000000010000 ""
b11000000010000 -"
b100001101001100000 *"
b0 l
b0 ]
12
b1100 !"
b11000000010000 ,"
b11000000001100 ,
b11000000001100 i
b11000000001100 w
b11000000001100 #"
b11000000001100 &"
b0 Z
b0 )
b0 A
b0 a
b0 t
1!
#26000
0!
#27000
b0 v
b0 $
b0 u
b10 :
b10 ?
b10 W
1'
b0 ;
b0 @
b0 X
1N
b1 9
b1 V
b0 0
b0 S
14
01
b0 %
b0 >
0L
b0 6
b0 o
b11001 <
b11001 r
b0 n
b11001 q
b0 #
b0 ~
b0 )"
b11001000000000000000000 +"
b110010000000000000000 }
b110010000000000000000 ("
b0 D
b1101 E
b0 l
b0 ^
b0 _
12
b110100000110010000000000000000 3
b110100000110010000000000000000 y
b11000000010100 .
b11000000010100 z
b11000000010100 ""
b11000000010100 -"
b11000000010100 *"
b0 Z
b0 )
b0 A
b0 a
b0 t
b10000 !"
b11000000010100 ,"
b11000000010000 ,
b11000000010000 i
b11000000010000 w
b11000000010000 #"
b11000000010000 &"
1!
#28000
0!
#29000
0'
b101000 v
15
1/
b101000 $
b101000 u
b101000 ;
b101000 @
b101000 X
1P
b0 :
b0 ?
b0 W
0N
b0 0
b0 S
04
11
b101000 %
b101000 >
0L
b101000 6
b101000 o
b10011 <
b10011 r
b101000 n
b10011 q
b11001 p
b101000 ~
b101000 )"
b1100110011000000000010100000 +"
b11001100110000000000101000 }
b11001100110000000000101000 ("
b101000 D
b101011 E
b10101111001100110000000000101000 3
b10101111001100110000000000101000 y
b11000000011000 .
b11000000011000 z
b11000000011000 ""
b11000000011000 -"
b11000010111000 *"
b10100 !"
b11000000011000 ,"
b11000000010100 ,
b11000000010100 i
b11000000010100 w
b11000000010100 #"
b11000000010100 &"
1!
#30000
0!
#31000
b10 -
b10 R
b10 {
b10 $"
1H
b0 v
b0 $
b0 u
14
01
b0 ;
b0 @
b0 X
b0 9
b0 V
b0 %
b0 >
05
0/
0P
b101 6
b101 o
b10 <
b10 r
b101 n
b10 q
b10101 p
b101 ~
b101 )"
b1010100010000000000000010100 +"
b10101000100000000000000101 }
b10101000100000000000000101 ("
b101 D
b100 E
b10010101000100000000000000101 3
b10010101000100000000000000101 y
b11000000110000 .
b11000000110000 z
b11000000110000 ""
b11000000110000 -"
b11000000110000 *"
b11000 !"
b11000000011100 ,"
b11000000011000 ,
b11000000011000 i
b11000000011000 w
b11000000011000 #"
b11000000011000 &"
1!
#32000
0!
#33000
1'
b1 (
b1 Q
1G
1F
b0 -
b0 R
b0 {
b0 $"
0H
b11000000110100 .
b11000000110100 z
b11000000110100 ""
b11000000110100 -"
b1100000100000 6
b1100000100000 o
b11 <
b11 r
b1100000100000 n
b11001 q
b11110 p
b1100000100000 ~
b1100000100000 )"
b1111011001000110000010000000 +"
b11110110010001100000100000 }
b11110110010001100000100000 ("
b100000 D
b0 E
b11110110010001100000100000 3
b11110110010001100000100000 y
b1001000010110100 *"
b110000 !"
b11000000110100 ,"
b11000000110000 ,
b11000000110000 i
b11000000110000 w
b11000000110000 #"
b11000000110000 &"
1!
#34000
0!
#35000
0'
b0 (
b0 Q
0G
b0 <
b0 r
b0 6
b0 o
b0 n
b0 q
b0 p
b0 ~
b0 )"
b0 +"
b0 }
b0 ("
b0 D
b0 3
b0 y
b11000000111000 .
b11000000111000 z
b11000000111000 ""
b11000000111000 -"
b11000000111000 *"
b110100 !"
b11000000111000 ,"
b11000000110100 ,
b11000000110100 i
b11000000110100 w
b11000000110100 #"
b11000000110100 &"
1!
#36000
0!
#37000
b110000100 v
b110000100 $
b110000100 u
b110000100 ;
b110000100 @
b110000100 X
04
11
b110000100 %
b110000100 >
1'
b1 9
b1 V
b10 :
b10 ?
b10 W
0F
1N
b0 -
b0 R
b0 {
b0 $"
0I
b110000100 6
b110000100 o
b1001 <
b1001 r
b110000100 n
b1001 q
b110 #
b110000100 ~
b110000100 )"
b1001000000011000010000 +"
b10010000000110000100 }
b10010000000110000100 ("
b100 D
b1101 E
b110100000010010000000110000100 3
b110100000010010000000110000100 y
b11000000111100 .
b11000000111100 z
b11000000111100 ""
b11000000111100 -"
b11011001001100 *"
b111000 !"
b11000000111100 ,"
b11000000111000 ,
b11000000111000 i
b11000000111000 w
b11000000111000 #"
b11000000111000 &"
1!
#38000
0!
#39000
0'
15
1/
b110100000 ;
b110100000 @
b110100000 X
1P
b110100000 v
b0 :
b0 ?
b0 W
b110100000 $
b110100000 u
0N
b0 0
b0 S
b11100 %
b11100 >
0L
b11100 6
b11100 o
04
01
b110000100 &
b110000100 =
b100 <
b100 r
b0 k
b0 j
b11100 n
b100 q
b110000100 %"
b110000100 *
b110000100 B
b110000100 s
b110000100 |
b110000100 '"
b1001 p
b0 #
b11100 ~
b11100 )"
b100100100000000000001110000 +"
b1001001000000000000011100 }
b1001001000000000000011100 ("
b11100 D
b101011 E
b0 l
b0 ]
b0 `
02
b10101101001001000000000000011100 3
b10101101001001000000000000011100 y
b11000001000000 .
b11000001000000 z
b11000001000000 ""
b11000001000000 -"
b11000001000000 *"
b0 Z
b0 )
b0 A
b0 a
b0 t
b111100 !"
b11000001000000 ,"
b11000000111100 ,
b11000000111100 i
b11000000111100 w
b11000000111100 #"
b11000000111100 &"
1!
#40000
0!
#41000
b10 -
b10 R
b10 {
b10 $"
1H
14
b0 v
b0 9
b0 V
b0 %
b0 >
b0 $
b0 u
05
0/
b0 ;
b0 @
b0 X
0P
b11011110 6
b11011110 o
12
01
b0 &
b0 =
b1111 <
b1111 r
b11011110 n
b1111 q
b0 %"
b0 *
b0 B
b0 s
b0 |
b0 '"
b1000 p
b11 #
b11011110 ~
b11011110 )"
b100001111000000001101111000 +"
b1000011110000000011011110 }
b1000011110000000011011110 ("
b11110 D
b100 E
b10001000011110000000011011110 3
b10001000011110000000011011110 y
b11001110111100 .
b11001110111100 z
b11001110111100 ""
b11001110111100 -"
b11001110111100 *"
b1000000 !"
b11000001000100 ,"
b11000001000000 ,
b11000001000000 i
b11000001000000 w
b11000001000000 #"
b11000001000000 &"
1!
#42000
0!
#43000
b11001111000000 v
b11001111000000 $
b11001111000000 u
0F
b10 (
b10 Q
1'
b10 0
b10 S
b1 -
b1 R
b1 {
b1 $"
1J
0H
b11001111000000 .
b11001111000000 z
b11001111000000 ""
b11001111000000 -"
b110011110000 6
b110011110000 o
b11111 <
b11111 r
b110011110000 n
b0 q
b0 p
b10011 #
b110011110000 ~
b110011110000 )"
b11001111000000 +"
b110011110000 }
b110011110000 ("
b110000 D
b11 E
b1100000000000000110011110000 3
b1100000000000000110011110000 y
b110011110000000 *"
b1110111100 !"
b11001111000000 ,"
b11001110111100 ,
b11001110111100 i
b11001110111100 w
b11001110111100 #"
b11001110111100 &"
1!
#44000
0!
#45000
b1 9
b1 V
b10 :
b10 ?
b10 W
b0 -
b0 R
b0 {
b0 $"
1N
b10110 <
b10110 r
b0 (
b0 Q
1'
b0 0
b0 S
0I
0J
b0 ;
b0 @
b0 X
b11001111000100 .
b11001111000100 z
b11001111000100 ""
b11001111000100 -"
b0 v
b0 6
b0 o
b1111010100101000000000000000000 l
b1111010 ^
b10010100 _
02
14
01
b0 %
b0 >
b0 $
b0 u
b0 n
b1111010100101000000000000000000 Z
b1111010100101000000000000000000 )
b1111010100101000000000000000000 A
b1111010100101000000000000000000 a
b1111010100101000000000000000000 t
b10110 q
b0 #
b0 ~
b0 )"
b10110000000000000000000 +"
b101100000000000000000 }
b101100000000000000000 ("
b0 D
b1101 E
b110100000101100000000000000000 3
b110100000101100000000000000000 y
b11001111000100 *"
b1111000000 !"
b11001111000100 ,"
b11001111000000 ,
b11001111000000 i
b11001111000000 w
b11001111000000 #"
b11001111000000 &"
1!
#46000
0!
#47000
b0 v
b0 -
b0 R
b0 {
b0 $"
15
b0 $
b0 u
b0 (
b0 Q
b100 ;
b100 @
b100 X
1M
0J
b0 :
b0 ?
b0 W
0N
b1 0
b1 S
04
11
b100 %
b100 >
0L
b10001011111100 k
b11111100 j
b100 6
b100 o
b100010 ]
b11111100 `
b11101 <
b11101 r
b100 n
b11101 q
b10110 p
b100 ~
b100 )"
b1011011101000000000000010000 +"
b10110111010000000000000100 }
b10110111010000000000000100 ("
b100 D
b100011 E
b10001011111100 l
b0 ^
b0 _
02
b10001110110111010000000000000100 3
b10001110110111010000000000000100 y
b11001111001000 .
b11001111001000 z
b11001111001000 ""
b11001111001000 -"
b11001111001000 *"
b10001011111100 Z
b10001011111100 )
b10001011111100 A
b10001011111100 a
b10001011111100 t
b1111000100 !"
b11001111001000 ,"
b11001111000100 ,
b11001111000100 i
b11001111000100 w
b11001111000100 #"
b11001111000100 &"
1!
#48000
0!
#49000
1F
0'
b0 9
b0 V
b0 ;
b0 @
b0 X
05
b0 0
b0 S
14
01
b0 %
b0 >
0M
b0 6
b0 o
b0 <
b0 r
b0 n
b0 q
b0 p
b0 ~
b0 )"
b0 +"
b0 }
b0 ("
b0 D
b0 E
b0 k
b0 j
b0 3
b0 y
b11001111001100 .
b11001111001100 z
b11001111001100 ""
b11001111001100 -"
b11001111001100 *"
b0 l
b0 ]
b0 `
12
b1111001000 !"
b11001111001100 ,"
b11001111001000 ,
b11001111001000 i
b11001111001000 w
b11001111001000 #"
b11001111001000 &"
b0 Z
b0 )
b0 A
b0 a
b0 t
1!
#50000
0!
#51000
b11001111010000 .
b11001111010000 z
b11001111010000 ""
b11001111010000 -"
b11001111010000 *"
b1111001100 !"
b11001111010000 ,"
b11001111001100 ,
b11001111001100 i
b11001111001100 w
b11001111001100 #"
b11001111001100 &"
1!
#52000
0!
#53000
1'
b1 (
b1 Q
1G
b11100000100000 6
b11100000100000 o
b111 <
b111 r
b11100000100000 n
b10111 q
b10000 p
b11100000100000 ~
b11100000100000 )"
b1000010111001110000010000000 +"
b10000101110011100000100000 }
b10000101110011100000100000 ("
b100000 D
b10000101110011100000100000 3
b10000101110011100000100000 y
b11001111010100 .
b11001111010100 z
b11001111010100 ""
b11001111010100 -"
b10001010001010100 *"
b1111010000 !"
b11001111010100 ,"
b11001111010000 ,
b11001111010000 i
b11001111010000 w
b11001111010000 #"
b11001111010000 &"
1!
#54000
0!
#55000
0G
b1 :
b1 ?
b1 W
1O
b1011 <
b1011 r
b101100000100010 6
b101100000100010 o
b101100000100010 n
b111 q
b0 p
b101100000100010 ~
b101100000100010 )"
b111010110000010001000 +"
b1110101100000100010 }
b1110101100000100010 ("
b100010 D
b1110101100000100010 3
b1110101100000100010 y
b11001111011000 .
b11001111011000 z
b11001111011000 ""
b11001111011000 -"
b11001010001100000 *"
b1111010100 !"
b11001111011000 ,"
b11001111010100 ,
b11001111010100 i
b11001111010100 w
b11001111010100 #"
b11001111010100 &"
1!
#56000
0!
#57000
b1011001001101100000000000000000 v
b101100100110110 ;
b101100100110110 @
b101100100110110 X
04
11
b101100100110110 %
b101100100110110 >
b1011001001101100000000000000000 $
b1011001001101100000000000000000 u
b0 :
b0 ?
b0 W
b1 9
b1 V
b1000 <
b1000 r
0O
0F
1L
b0 (
b0 Q
b11 0
b11 S
0J
b0 -
b0 R
b0 {
b0 $"
0I
b101100100110110 6
b101100100110110 o
b101100100110110 n
b1000 q
b100 #
b101100100110110 ~
b101100100110110 )"
b1000010110010011011000 +"
b10000101100100110110 }
b10000101100100110110 ("
b110110 D
b1111 E
b111100000010000101100100110110 3
b111100000010000101100100110110 y
b11001111011100 .
b11001111011100 z
b11001111011100 ""
b11001111011100 -"
b11001100010110100 *"
b1111011000 !"
b11001111011100 ,"
b11001111011000 ,
b11001111011000 i
b11001111011000 w
b11001111011000 #"
b11001111011000 &"
1!
#58000
0!
#59000
xG
xO
xK
xF
x5
x/
bx (
bx Q
bx -
bx R
bx {
bx $"
xM
xP
xH
xJ
xI
bx f
bx d
b0xx :
b0xx ?
b0xx W
bx $
bx u
bx c
bx e
bx b
bx g
bx +
bx h
bx j
xN
x'
bx %
bx >
bx [
bx \
b0x 9
b0x V
bx 0
bx S
bx k
bx ;
bx @
bx X
bx v
xL
bx 6
bx o
bx ]
bx `
x4
x1
bx &
bx =
bx <
bx r
bx n
bx q
bx %"
bx *
bx B
bx s
bx |
bx '"
bx p
b0xxxxx #
bx ~
bx )"
b0xxxxxxxxxxxxxxxxxxxxxxxxxx00 +"
bx }
bx ("
bx D
bx E
bx l
bx ^
bx _
x2
bx 3
bx y
bx .
bx z
bx ""
bx -"
bx *"
bx Z
bx )
bx A
bx a
bx t
b1111011100 !"
b11001111100000 ,"
b11001111011100 ,
b11001111011100 i
b11001111011100 w
b11001111011100 #"
b11001111011100 &"
1!
#60000
0!
#61000
bx00 +"
bx !"
bx ,"
bx ,
bx i
bx w
bx #"
bx &"
1!
