P4/P4_test_2.0/src_1.0/mips_tb.vcd
$date
	Thu Nov 03 12:00:46 2022
$end
$version
	Icarus Verilog
$end
$timescale
	1ps
$end
$scope module mips_tb $end
$var reg 1 ! clk $end
$var reg 1 " reset $end
$scope module uut $end
$var wire 1 ! clk $end
$var wire 1 " reset $end
$var wire 32 # s [31:0] $end
$var wire 32 $ WD [31:0] $end
$var wire 32 % SrcB [31:0] $end
$var wire 32 & SrcA [31:0] $end
$var wire 1 ' Regwrite $end
$var wire 2 ( RegDst [1:0] $end
$var wire 32 ) RD2 [31:0] $end
$var wire 32 * RD1 [31:0] $end
$var wire 32 + RD [31:0] $end
$var wire 32 , PC [31:0] $end
$var wire 2 - NPCop [1:0] $end
$var wire 32 . NPC [31:0] $end
$var wire 1 / Memwrite $end
$var wire 2 0 MemtoReg [1:0] $end
$var wire 1 1 Less $end
$var wire 32 2 Instr [31:0] $end
$var wire 1 3 Equal $end
$var wire 1 4 EXTop $end
$var wire 32 5 EXTImm [31:0] $end
$var wire 2 6 DMop [1:0] $end
$var wire 3 7 Branchop [2:0] $end
$var wire 2 8 ALUsrc [1:0] $end
$var wire 3 9 ALUctrl [2:0] $end
$var wire 32 : ALUResult [31:0] $end
$var wire 5 ; A3 [4:0] $end
$scope module _alu $end
$var wire 32 < SrcA [31:0] $end
$var wire 32 = SrcB [31:0] $end
$var wire 1 1 Less $end
$var wire 1 3 Equal $end
$var wire 3 > ALUop [2:0] $end
$var wire 32 ? ALUResult [31:0] $end
$upscope $end
$scope module _ctrl $end
$var wire 1 4 EXTop $end
$var wire 6 @ Func [5:0] $end
$var wire 1 / Memwrite $end
$var wire 6 A OP [5:0] $end
$var wire 1 B R $end
$var wire 1 ' Regwrite $end
$var wire 1 C add $end
$var wire 1 D beq $end
$var wire 1 E j $end
$var wire 1 F jal $end
$var wire 1 G jr $end
$var wire 1 H lui $end
$var wire 1 I lw $end
$var wire 1 J ori $end
$var wire 1 K sub $end
$var wire 1 L sw $end
$var wire 2 M RegDst [1:0] $end
$var wire 2 N NPCop [1:0] $end
$var wire 2 O MemtoReg [1:0] $end
$var wire 2 P DMop [1:0] $end
$var wire 3 Q Branchop [2:0] $end
$var wire 2 R ALUsrc [1:0] $end
$var wire 3 S ALUctrl [2:0] $end
$upscope $end
$scope module _dm $end
$var wire 32 T A [31:0] $end
$var wire 2 U DMop [1:0] $end
$var wire 32 V Data0 [31:0] $end
$var wire 1 / Memwrite $end
$var wire 32 W RD0 [31:0] $end
$var wire 32 X RD_ram [31:0] $end
$var wire 1 ! clk $end
$var wire 1 " reset $end
$var wire 8 Y WD8_15 [7:0] $end
$var wire 8 Z WD24_31 [7:0] $end
$var wire 8 [ WD16_23 [7:0] $end
$var wire 8 \ WD0_7 [7:0] $end
$var wire 32 ] WD [31:0] $end
$var wire 8 ^ RD8_15 [7:0] $end
$var wire 8 _ RD24_31 [7:0] $end
$var wire 32 ` RD2 [31:0] $end
$var wire 8 a RD16_23 [7:0] $end
$var wire 32 b RD1 [31:0] $end
$var wire 8 c RD0_7 [7:0] $end
$var wire 32 d RD [31:0] $end
$var wire 32 e PC [31:0] $end
$var wire 32 f Data2 [31:0] $end
$var wire 32 g Data1 [31:0] $end
$var wire 32 h Data [31:0] $end
$var integer 32 i i [31:0] $end
$upscope $end
$scope module _ext $end
$var wire 1 4 EXTop $end
$var wire 16 j Imm [15:0] $end
$var wire 32 k EXTImm [31:0] $end
$upscope $end
$scope module _grf $end
$var wire 5 l A1 [4:0] $end
$var wire 5 m A2 [4:0] $end
$var wire 5 n A3 [4:0] $end
$var wire 32 o RD1 [31:0] $end
$var wire 32 p RD2 [31:0] $end
$var wire 32 q WD [31:0] $end
$var wire 1 ' WE $end
$var wire 1 ! clk $end
$var wire 1 " reset $end
$var wire 32 r wd [31:0] $end
$var wire 32 s PC [31:0] $end
$var integer 32 t i [31:0] $end
$upscope $end
$scope module _ifu $end
$var wire 3 u Branchop [2:0] $end
$var wire 1 3 Equal $end
$var wire 32 v Instr [31:0] $end
$var wire 1 1 Less $end
$var wire 32 w NPC [31:0] $end
$var wire 2 x NPCop [1:0] $end
$var wire 32 y Reg [31:0] $end
$var wire 1 z big $end
$var wire 1 { big_equal $end
$var wire 1 ! clk $end
$var wire 1 | equal $end
$var wire 26 } instr_index [25:0] $end
$var wire 1 ~ less $end
$var wire 1 !" less_equal $end
$var wire 1 "" n_equal $end
$var wire 16 #" offset [15:0] $end
$var wire 1 " reset $end
$var wire 32 $" PC1 [31:0] $end
$var wire 32 %" NPC_wire [31:0] $end
$var reg 32 &" PC [31:0] $end
$scope module npc $end
$var wire 3 '" Branchop [2:0] $end
$var wire 2 (" NPCop [1:0] $end
$var wire 32 )" O4 [31:0] $end
$var wire 32 *" PC [31:0] $end
$var wire 32 +" Reg [31:0] $end
$var wire 1 z big $end
$var wire 1 { big_or_equal $end
$var wire 1 | equal $end
$var wire 26 ," instr_index [25:0] $end
$var wire 1 ~ less $end
$var wire 1 !" less_or_equal $end
$var wire 1 "" n_equal $end
$var wire 16 -" offset [15:0] $end
$var wire 1 ." O3_MUX_ctrl $end
$var wire 32 /" O3 [31:0] $end
$var wire 32 0" O2 [31:0] $end
$var wire 32 1" O1 [31:0] $end
$var wire 32 2" NPC [31:0] $end
$upscope $end
$upscope $end
$upscope $end
$upscope $end
$enddefinitions $end
#0
$dumpvars
b11000000000100 2"
b11000000000100 1"
b11101001000101111110000 0"
b0x011x0xxxxxx0100 /"
x."
b10001011111100 -"
b111010010001011111100 ,"
bx +"
b11000000000000 *"
bx )"
b0 ("
b0 '"
b11000000000000 &"
b11000000000100 %"
b0 $"
b10001011111100 #"
x""
x!"
x~
b111010010001011111100 }
x|
x{
xz
bx y
b0 x
b11000000000100 w
b110100000111010010001011111100 v
b0 u
b0 t
b11000000000000 s
bx1xxx1x111111xx r
bx1xxx1x111111xx q
bx p
bx o
b11101 n
b11101 m
b0 l
b10001011111100 k
b10001011111100 j
b0 i
bx h
bx g
bx f
b11000000000000 e
bx d
bx c
bx b
bx a
bx `
bx _
bx ^
bx ]
bx \
bx [
bx Z
bx Y
bx X
bx W
bx V
b0 U
bx1xxx1x111111xx T
b10 S
b1 R
b0 Q
b0 P
b0 O
b0 N
b0 M
0L
0K
1J
0I
0H
0G
0F
0E
0D
0C
0B
b1101 A
b111100 @
bx1xxx1x111111xx ?
b10 >
b10001011111100 =
bx <
b11101 ;
bx1xxx1x111111xx :
b10 9
b1 8
b0 7
b0 6
b10001011111100 5
04
x3
b110100000111010010001011111100 2
x1
b0 0
0/
b11000000000100 .
b0 -
b11000000000000 ,
bx +
bx *
bx )
b0 (
1'
bx &
b10001011111100 %
bx1xxx1x111111xx $
b1011 #
1"
0!
$end
#1000
b0 b
b0 `
b0 _
b0 a
b0 ^
b0 c
b0 +
b0 d
b0 g
b0 f
b10001011111100 r
b0 W
b0 X
b10001011111100 $
b10001011111100 q
b10001011111100 :
b10001011111100 ?
b10001011111100 T
b11000000000100 /"
0z
0."
1""
1!"
0{
b0 h
b0 Z
b0 [
b0 Y
b0 \
0|
03
1~
11
b0 &
b0 <
b0 V
b0 )
b0 ]
b0 p
b0 )"
b0 *
b0 o
b0 y
b0 +"
b100000 t
b1000000000000 i
1!
#2000
0!
#3000
b1000000000000 i
b100000 t
1!
#4000
0!
#5000
b100000 t
b1000000000000 i
1!
#6000
0!
#7000
b1000000000000 i
b100000 t
1!
#8000
0!
#9000
b100000 t
b1000000000000 i
1!
#10000
0!
#11000
b1000000000000 i
b100000 t
1!
#12000
0!
#13000
b100000 t
b1000000000000 i
1!
#14000
0!
#15000
b1000000000000 i
b100000 t
1!
#16000
0!
#17000
b100000 t
b1000000000000 i
1!
#18000
0!
#19000
b1000000000000 i
b100000 t
1!
#20000
0!
0"
#21000
b1100000000000 r
b1100000000000 $
b1100000000000 q
b1100000000000 :
b1100000000000 ?
b1100000000000 T
b1100000000000 %
b1100000000000 =
b1100000000000 5
b1100000000000 k
b11100 ;
b11100 n
b1100000000000 j
b11100 m
b0 #
b1100000000000 #"
b1100000000000 -"
b11100000110000000000000 0"
b111000001100000000000 }
b111000001100000000000 ,"
b0 @
b0 g
b0 f
b110100000111000001100000000000 2
b110100000111000001100000000000 v
b11000000001000 .
b11000000001000 w
b11000000001000 %"
b11000000001000 2"
b11000000001000 /"
b0 h
b0 Y
b0 \
b100 $"
b11000000001000 1"
b11000000000100 ,
b11000000000100 e
b11000000000100 s
b11000000000100 &"
b11000000000100 *"
b0 V
b0 )
b0 ]
b0 p
1!
#22000
0!
#23000
b11000000000000 r
b11000000000000 $
b11000000000000 q
b11000000000000 :
b11000000000000 ?
b11000000000000 T
b11000000000000 %
b11000000000000 =
b11000000000000 5
b11000000000000 k
b11111 ;
b11111 n
b0 g
b11000000000000 j
b11111 m
b11000000000000 #"
b11000000000000 -"
b11111001100000000000000 0"
b111110011000000000000 }
b111110011000000000000 ,"
b0 h
b0 Y
b110100000111110011000000000000 2
b110100000111110011000000000000 v
b11000000001100 .
b11000000001100 w
b11000000001100 %"
b11000000001100 2"
b11000000001100 /"
b0 V
b0 )
b0 ]
b0 p
b1000 $"
b11000000001100 1"
b11000000001000 ,
b11000000001000 e
b11000000001000 s
b11000000001000 &"
b11000000001000 *"
1!
#24000
0!
#25000
b1 (
b1 M
1K
1B
1'
b0 8
b0 R
b11111111111111111101110100000100 r
b11111111111111111101110100000100 $
b11111111111111111101110100000100 q
b11111111111111111101110100000100 :
b11111111111111111101110100000100 ?
b11111111111111111101110100000100 T
b10001011111100 %
b10001011111100 =
b1 9
b1 >
b1 S
b11111100 f
0J
b1000000100010 5
b1000000100010 k
b11111100 \
b10 ;
b10 n
b1000000100010 j
b11101 m
b11011 l
b1000000100010 #"
b1000000100010 -"
b1101111101000100000010001000 0"
b11011111010001000000100010 }
b11011111010001000000100010 ,"
b100010 @
b0 A
b10001011111100 g
b11011111010001000000100010 2
b11011111010001000000100010 v
b11000000010000 .
b11000000010000 w
b11000000010000 %"
b11000000010000 2"
b11000000010000 /"
b10001011111100 h
b100010 Y
b1100 $"
b11000000010000 1"
b11000000001100 ,
b11000000001100 e
b11000000001100 s
b11000000001100 &"
b11000000001100 *"
b10001011111100 V
b10001011111100 )
b10001011111100 ]
b10001011111100 p
1!
#26000
0!
#27000
b0 r
b0 $
b0 q
b0 :
b0 ?
b0 T
b0 g
b0 f
1."
0""
1{
b11110 ;
b11110 n
b1111000000100010 5
b1111000000100010 k
b0 h
b0 Y
b0 \
1|
13
0~
01
b0 %
b0 =
b1111000000100010 j
b0 V
b0 )
b0 ]
b0 p
b11010 m
b1011 l
b1111000000100010 #"
b1111000000100010 -"
b101111010111100000010001000 0"
b1011110101111000000100010 }
b1011110101111000000100010 ,"
b1011110101111000000100010 2
b1011110101111000000100010 v
b11000000010100 .
b11000000010100 w
b11000000010100 %"
b11000000010100 2"
b11111111111111111111000010011100 /"
b10000 $"
b11000000010100 1"
b11000000010000 ,
b11000000010000 e
b11000000010000 s
b11000000010000 &"
b11000000010000 *"
1!
#28000
0!
#29000
b111000000001101 r
b111000000001101 $
b111000000001101 q
b111000000001101 :
b111000000001101 ?
b111000000001101 T
0."
1""
0{
0|
03
1~
11
b111000000001101 %
b111000000001101 =
b1 8
b1 R
0B
1J
b0 (
b0 M
b10 9
b10 >
b10 S
0K
b0 -
b0 N
b0 x
b0 ("
b10010 ;
b10010 n
0E
b111000000001101 5
b111000000001101 k
b111000000001101 j
b10010 m
b0 l
b111000000001101 #"
b111000000001101 -"
b10010011100000000110100 0"
b100100111000000001101 }
b100100111000000001101 ,"
b1101 @
b1101 A
b110100000100100111000000001101 2
b110100000100100111000000001101 v
b11000000011000 .
b11000000011000 w
b11000000011000 %"
b11000000011000 2"
b11000000011000 /"
b10100 $"
b11000000011000 1"
b11000000010100 ,
b11000000010100 e
b11000000010100 s
b11000000010100 &"
b11000000010100 *"
1!
#30000
0!
#31000
b1 (
b1 M
1C
1."
0""
1{
1B
1|
13
0~
01
1'
b0 8
b0 R
b0 r
b0 $
b0 q
b0 :
b0 ?
b0 T
b0 %
b0 =
b0 9
b0 >
b0 S
0J
b0 f
b1101000000100000 5
b1101000000100000 k
b11010 ;
b11010 n
b0 g
b1101000000100000 j
b11010 m
b10110 l
b1101000000100000 #"
b1101000000100000 -"
b1011011010110100000010000000 0"
b10110110101101000000100000 }
b10110110101101000000100000 ,"
b100000 @
b0 A
b0 h
b0 Y
b0 \
b10110110101101000000100000 2
b10110110101101000000100000 v
b11000000011100 .
b11000000011100 w
b11000000011100 %"
b11000000011100 2"
b11111111111111110111000010011100 /"
b0 V
b0 )
b0 ]
b0 p
b11000 $"
b11000000011100 1"
b11000000011000 ,
b11000000011000 e
b11000000011000 s
b11000000011000 &"
b11000000011000 *"
1!
#32000
0!
#33000
b1100111110000111 r
b1100111110000111 $
b1100111110000111 q
b1100111110000111 :
b1100111110000111 ?
b1100111110000111 T
0."
1""
0{
0|
03
1~
11
b1100111110000111 %
b1100111110000111 =
b1 8
b1 R
b10 9
b10 >
b10 S
b0 (
b0 M
0B
1J
0C
b0 -
b0 N
b0 x
b0 ("
b11010 ;
b11010 n
0E
b1100111110000111 5
b1100111110000111 k
b1100111110000111 j
b101 l
b11110 #
b1100111110000111 #"
b1100111110000111 -"
b10111010110011111000011100 0"
b101110101100111110000111 }
b101110101100111110000111 ,"
b111 @
b1101 A
b110100101110101100111110000111 2
b110100101110101100111110000111 v
b11000000100000 .
b11000000100000 w
b11000000100000 %"
b11000000100000 2"
b11000000100000 /"
b11100 $"
b11000000100000 1"
b11000000011100 ,
b11000000011100 e
b11000000011100 s
b11000000011100 &"
b11000000011100 *"
1!
#34000
0!
#35000
b1 (
b1 M
1K
1B
1'
b0 8
b0 R
b1100000000000 r
1z
b1100000000000 $
b1100000000000 q
0!"
1{
b1100000000000 :
b1100000000000 ?
b1100000000000 T
b0 f
0~
01
b0 %
b0 =
b1 9
b1 >
b1 S
0J
b1000000100010 5
b1000000100010 k
b1100000000000 &
b1100000000000 <
b10 ;
b10 n
b0 g
b1000000100010 j
b1100 m
b1100000000000 )"
b1100000000000 *
b1100000000000 o
b1100000000000 y
b1100000000000 +"
b11100 l
b0 #
b1000000100010 #"
b1000000100010 -"
b1110001100000100000010001000 0"
b11100011000001000000100010 }
b11100011000001000000100010 ,"
b100010 @
b0 A
b0 h
b0 Y
b0 \
b11100011000001000000100010 2
b11100011000001000000100010 v
b11000000100100 .
b11000000100100 w
b11000000100100 %"
b11000000100100 2"
b11000000100100 /"
b0 V
b0 )
b0 ]
b0 p
b100000 $"
b11000000100100 1"
b11000000100000 ,
b11000000100000 e
b11000000100000 s
b11000000100000 &"
b11000000100000 *"
1!
#36000
0!
#37000
0{
1~
11
b1111010111101 %
b1111010111101 =
b1 8
b1 R
b11110101111010000000000000000 r
0B
1H
b11110101111010000000000000000 $
b11110101111010000000000000000 q
b0 9
b0 >
b0 S
b0 (
b0 M
b11 0
b11 O
0z
b1111010111101 :
b1111010111101 ?
b1111010111101 T
0K
0F
b0 -
b0 N
b0 x
b0 ("
0."
1""
1!"
b10110 ;
b10110 n
0E
b1111010111101 5
b1111010111101 k
0|
03
b0 &
b0 <
b1111010111101 j
b10110 m
b0 )"
b0 *
b0 o
b0 y
b0 +"
b0 l
b11010 #
b1111010111101 #"
b1111010111101 -"
b10110000111101011110100 0"
b101100001111010111101 }
b101100001111010111101 ,"
b111101 @
b1111 A
b111100000101100001111010111101 2
b111100000101100001111010111101 v
b11000000101000 .
b11000000101000 w
b11000000101000 %"
b11000000101000 2"
b11000000101000 /"
b100100 $"
b11000000101000 1"
b11000000100100 ,
b11000000100100 e
b11000000100100 s
b11000000100100 &"
b11000000100100 *"
1!
#38000
0!
#39000
0."
1""
0{
0|
03
1~
11
b1111000 r
b1111000 $
b1111000 q
b10 9
b10 >
b10 S
1'
b1111000 :
b1111000 ?
b1111000 T
1J
b1 8
b1 R
b0 0
b0 O
b1111000 %
b1111000 =
b1101 f
0H
b111000000001101 g
b1111000 5
b1111000 k
b1110000 Y
b1101 \
b10010 ;
b10010 n
b1111000 j
b10010 m
b1 #
b1111000 #"
b1111000 -"
b10010000000000111100000 0"
b100100000000001111000 }
b100100000000001111000 ,"
b111000 @
b1101 A
b111000000001101 h
b0 Z
b0 [
b110100000100100000000001111000 2
b110100000100100000000001111000 v
b11000000101100 .
b11000000101100 w
b11000000101100 %"
b11000000101100 2"
b11000000101100 /"
b111000000001101 V
b111000000001101 )
b111000000001101 ]
b111000000001101 p
b101000 $"
b11000000101100 1"
b11000000101000 ,
b11000000101000 e
b11000000101000 s
b11000000101000 &"
b11000000101000 *"
1!
#40000
0!
#41000
0'
14
1/
b10011000 :
b10011000 ?
b10011000 T
1L
b10011000 r
1z
b0 9
b0 >
b0 S
b10011000 $
b10011000 q
0!"
0J
b0 0
b0 O
b100000 %
b100000 =
0H
0."
1""
1{
b100000 5
b100000 k
0|
03
0~
01
b1111000 &
b1111000 <
b1010 ;
b1010 n
b100000 j
b1010 m
b1111000 )"
b1111000 *
b1111000 o
b1111000 y
b1111000 +"
b10010 l
b0 #
b100000 #"
b100000 -"
b1001001010000000000010000000 0"
b10010010100000000000100000 }
b10010010100000000000100000 ,"
b100000 @
b101011 A
b0 g
b0 f
b10101110010010100000000000100000 2
b10101110010010100000000000100000 v
b11000000110000 .
b11000000110000 w
b11000000110000 %"
b11000000110000 2"
b11000000110000 /"
b0 h
b0 Y
b0 \
b101100 $"
b11000000110000 1"
b11000000101100 ,
b11000000101100 e
b11000000101100 s
b11000000101100 &"
b11000000101100 *"
b0 V
b0 )
b0 ]
b0 p
1!
#42000
0!
#43000
b1 -
b1 N
b1 x
b1 ("
1."
0""
1|
13
b10 (
b10 M
1'
b10 0
b10 O
b0 8
b0 R
1F
04
0/
0L
b0 %
b0 =
0z
b11000000110100 $
b11000000110100 q
1!"
1{
b0 :
b0 ?
b0 T
b11000000110100 r
b110001110010 5
b110001110010 k
0~
01
b0 &
b0 <
b11111 ;
b11111 n
b110001110010 j
b0 m
b0 )"
b0 *
b0 o
b0 y
b0 +"
b0 l
b10001 #
b110001110010 #"
b110001110010 -"
b11000111001000 0"
b110001110010 }
b110001110010 ,"
b110010 @
b11 A
b1100000000000000110001110010 2
b1100000000000000110001110010 v
b11000111001000 .
b11000111001000 w
b11000111001000 %"
b11000111001000 2"
b110000111111100 /"
b110000 $"
b11000000110100 1"
b11000000110000 ,
b11000000110000 e
b11000000110000 s
b11000000110000 &"
b11000000110000 *"
1!
#44000
0!
#45000
1C
1B
b0 -
b0 N
b0 x
b0 ("
b11 ;
b11 n
b1 (
b1 M
1'
b0 0
b0 O
b11000111001100 .
b11000111001100 w
b11000111001100 %"
b11000111001100 2"
0F
b0 r
b1100000100000 5
b1100000100000 k
b0 $
b0 q
b1100000100000 j
b1001 m
b1011 l
b0 #
b1100000100000 #"
b1100000100000 -"
b101101001000110000010000000 0"
b1011010010001100000100000 }
b1011010010001100000100000 ,"
b100000 @
b0 A
b1011010010001100000100000 2
b1011010010001100000100000 v
b1001001001001100 /"
b111001000 $"
b11000111001100 1"
b11000111001000 ,
b11000111001000 e
b11000111001000 s
b11000111001000 &"
b11000111001000 *"
1!
#46000
0!
#47000
0C
b1 9
b1 >
b1 S
1K
b11110 ;
b11110 n
b1111000000100010 5
b1111000000100010 k
b1111000000100010 j
b101 m
b11110 l
b1111000000100010 #"
b1111000000100010 -"
b1111000101111100000010001000 0"
b11110001011111000000100010 }
b11110001011111000000100010 ,"
b100010 @
b11110001011111000000100010 2
b11110001011111000000100010 v
b11000111010000 .
b11000111010000 w
b11000111010000 %"
b11000111010000 2"
b11111111111111111111001001011000 /"
b111001100 $"
b11000111010000 1"
b11000111001100 ,
b11000111001100 e
b11000111001100 s
b11000111001100 &"
b11000111001100 *"
1!
#48000
0!
#49000
b100011000 r
b100011000 $
b100011000 q
b100011000 :
b100011000 ?
b100011000 T
0."
1""
0{
0|
03
1~
11
b100011000 %
b100011000 =
b1 8
b1 R
0B
1J
0C
b0 (
b0 M
b10 9
b10 >
b10 S
0K
b0 -
b0 N
b0 x
b0 ("
b10011 ;
b10011 n
0E
b100011000 5
b100011000 k
b100011000 j
b10011 m
b0 l
b100 #
b100011000 #"
b100011000 -"
b10011000000010001100000 0"
b100110000000100011000 }
b100110000000100011000 ,"
b11000 @
b1101 A
b110100000100110000000100011000 2
b110100000100110000000100011000 v
b11000111010100 .
b11000111010100 w
b11000111010100 %"
b11000111010100 2"
b11000111010100 /"
b111010000 $"
b11000111010100 1"
b11000111010000 ,
b11000111010000 e
b11000111010000 s
b11000111010000 &"
b11000111010000 *"
1!
#50000
0!
#51000
b0 -
b0 N
b0 x
b0 ("
14
b0 (
b0 M
b101000000 :
b101000000 ?
b101000000 T
1I
b0 r
0F
1z
b0 9
b0 >
b0 S
b0 $
b0 q
0!"
0J
b1 0
b1 O
b101000 %
b101000 =
0H
0."
1""
1{
b101000 5
b101000 k
0|
03
0~
01
b100011000 &
b100011000 <
b1 ;
b1 n
b0 g
b0 f
b101000 j
b1 m
b100011000 )"
b100011000 *
b100011000 o
b100011000 y
b100011000 +"
b10011 l
b0 #
b101000 #"
b101000 -"
b1001100001000000000010100000 0"
b10011000010000000000101000 }
b10011000010000000000101000 ,"
b101000 @
b100011 A
b0 h
b0 Y
b0 \
b10001110011000010000000000101000 2
b10001110011000010000000000101000 v
b11000111011000 .
b11000111011000 w
b11000111011000 %"
b11000111011000 2"
b11000111011000 /"
b0 V
b0 )
b0 ]
b0 p
b111010100 $"
b11000111011000 1"
b11000111010100 ,
b11000111010100 e
b11000111010100 s
b11000111010100 &"
b11000111010100 *"
1!
#52000
0!
#53000
1B
0'
b0 8
b0 R
1."
0""
04
b0 0
b0 O
1|
13
b0 %
b0 =
0z
1!"
1{
b0 :
b0 ?
b0 T
0I
b0 5
b0 k
0~
01
b0 &
b0 <
b0 ;
b0 n
b0 j
b0 m
b0 )"
b0 *
b0 o
b0 y
b0 +"
b0 l
b0 #"
b0 -"
b0 0"
b0 }
b0 ,"
b0 @
b0 A
b0 2
b0 v
b11000111011100 .
b11000111011100 w
b11000111011100 %"
b11000111011100 2"
b11000111011100 /"
b111011000 $"
b11000111011100 1"
b11000111011000 ,
b11000111011000 e
b11000111011000 s
b11000111011000 &"
b11000111011000 *"
1!
#54000
0!
#55000
b11000111100000 r
0B
b11111 ;
b11111 n
b11000111100000 $
b11000111100000 q
b10 (
b10 M
1'
b10 0
b10 O
1F
b1 -
b1 N
b1 x
b1 ("
0E
b110001111110 5
b110001111110 k
b110001111110 j
b10001 #
b110001111110 #"
b110001111110 -"
b11000111111000 0"
b110001111110 }
b110001111110 ,"
b111110 @
b11 A
b1100000000000000110001111110 2
b1100000000000000110001111110 v
b11000111111000 .
b11000111111000 w
b11000111111000 %"
b11000111111000 2"
b110001111011000 /"
b111011100 $"
b11000111100000 1"
b11000111011100 ,
b11000111011100 e
b11000111011100 s
b11000111011100 &"
b11000111011100 *"
1!
#56000
0!
#57000
b10 -
b10 N
b10 x
b10 ("
1D
b0 ;
b0 n
b0 (
b0 M
0'
b0 0
b0 O
b11001011000000 .
b11001011000000 w
b11001011000000 %"
b11001011000000 2"
0F
b0 r
b110001 5
b110001 k
b0 $
b0 q
b110001 j
b0 #
b110001 #"
b110001 -"
b11000100 0"
b110001 }
b110001 ,"
b110001 @
b100 A
b10000000000000000000000110001 2
b10000000000000000000000110001 v
b11001011000000 /"
b111111000 $"
b11000111111100 1"
b11000111111000 ,
b11000111111000 e
b11000111111000 s
b11000111111000 &"
b11000111111000 *"
1!
#58000
0!
#59000
1'
b1 (
b1 M
1C
1B
b0 -
b0 N
b0 x
b0 ("
0D
b11001011000100 .
b11001011000100 w
b11001011000100 %"
b11001011000100 2"
b100000 5
b100000 k
b0 ;
b0 n
b100000 j
b10000 m
b10100 l
b100000 #"
b100000 -"
b1010010000000000000010000000 0"
b10100100000000000000100000 }
b10100100000000000000100000 ,"
b100000 @
b0 A
b10100100000000000000100000 2
b10100100000000000000100000 v
b11001101000100 /"
b1011000000 $"
b11001011000100 1"
b11001011000000 ,
b11001011000000 e
b11001011000000 s
b11001011000000 &"
b11001011000000 *"
1!
#60000
0!
#61000
b10111100 r
b10111100 $
b10111100 q
b10111100 :
b10111100 ?
b10111100 T
0."
1""
0{
0|
03
1~
11
b10111100 %
b10111100 =
b1 8
b1 R
b10100 ;
b10100 n
b0 (
b0 M
b10 9
b10 >
b10 S
0C
0B
1J
b0 -
b0 N
b0 x
b0 ("
0E
b10111100 5
b10111100 k
b10111100 j
b10100 m
b0 l
b10 #
b10111100 #"
b10111100 -"
b10100000000001011110000 0"
b101000000000010111100 }
b101000000000010111100 ,"
b111100 @
b1101 A
b110100000101000000000010111100 2
b110100000101000000000010111100 v
b11001011001000 .
b11001011001000 w
b11001011001000 %"
b11001011001000 2"
b11001011001000 /"
b1011000100 $"
b11001011001000 1"
b11001011000100 ,
b11001011000100 e
b11001011000100 s
b11001011000100 &"
b11001011000100 *"
1!
#62000
0!
#63000
0'
14
1/
b11010100 :
b11010100 ?
b11010100 T
1L
b11010100 r
1z
b0 9
b0 >
b0 S
b11010100 $
b11010100 q
0!"
0J
b0 0
b0 O
b11000 %
b11000 =
0H
0."
1""
1{
b11000 5
b11000 k
0|
03
0~
01
b10111100 &
b10111100 <
b10101 ;
b10101 n
b0 g
b0 f
b11000 j
b10101 m
b10111100 )"
b10111100 *
b10111100 o
b10111100 y
b10111100 +"
b10100 l
b0 #
b11000 #"
b11000 -"
b1010010101000000000001100000 0"
b10100101010000000000011000 }
b10100101010000000000011000 ,"
b11000 @
b101011 A
b0 h
b0 \
b10101110100101010000000000011000 2
b10101110100101010000000000011000 v
b11001011001100 .
b11001011001100 w
b11001011001100 %"
b11001011001100 2"
b11001011001100 /"
b0 V
b0 )
b0 ]
b0 p
b1011001000 $"
b11001011001100 1"
b11001011001000 ,
b11001011001000 e
b11001011001000 s
b11001011001000 &"
b11001011001000 *"
1!
#64000
0!
#65000
1'
b1 (
b1 M
b1 9
b1 >
b1 S
1K
1B
1."
0""
1|
13
b0 r
b0 8
b0 R
b0 %
b0 =
0z
b0 $
b0 q
04
0/
1!"
1{
b0 :
b0 ?
b0 T
0L
b1000100000100010 5
b1000100000100010 k
0~
01
b0 &
b0 <
b10001 ;
b10001 n
b1000100000100010 j
b11001 m
b0 )"
b0 *
b0 o
b0 y
b0 +"
b10001 l
b1000100000100010 #"
b1000100000100010 -"
b1000111001100010000010001000 0"
b10001110011000100000100010 }
b10001110011000100000100010 ,"
b100010 @
b0 A
b10001110011000100000100010 2
b10001110011000100000100010 v
b11001011010000 .
b11001011010000 w
b11001011010000 %"
b11001011010000 2"
b11111111111111100101001101011000 /"
b1011001100 $"
b11001011010000 1"
b11001011001100 ,
b11001011001100 e
b11001011001100 s
b11001011001100 &"
b11001011001100 *"
1!
#66000
0!
#67000
b11111111111111111111111110001000 r
b11111111111111111111111110001000 $
b11111111111111111111111110001000 q
b11111111111111111111111110001000 :
b11111111111111111111111110001000 ?
b11111111111111111111111110001000 T
b1111000 g
b1111000 f
0."
1""
0{
b10110 ;
b10110 n
b1011000000100010 5
b1011000000100010 k
b1111000 h
b1111000 \
0|
03
1~
11
b1111000 %
b1111000 =
b1011000000100010 j
b1111000 V
b1111000 )
b1111000 ]
b1111000 p
b10010 m
b100 l
b1011000000100010 #"
b1011000000100010 -"
b10010010101100000010001000 0"
b100100101011000000100010 }
b100100101011000000100010 ,"
b100100101011000000100010 2
b100100101011000000100010 v
b11001011010100 .
b11001011010100 w
b11001011010100 %"
b11001011010100 2"
b11001011010100 /"
b1011010000 $"
b11001011010100 1"
b11001011010000 ,
b11001011010000 e
b11001011010000 s
b11001011010000 &"
b11001011010000 *"
1!
#68000
0!
#69000
b1 8
b1 R
b10111111100011010000000000000000 r
0B
1H
b10111111100011010000000000000000 $
b10111111100011010000000000000000 q
b0 9
b0 >
b0 S
b0 (
b0 M
b11 0
b11 O
b1011111110001101 :
b1011111110001101 ?
b1011111110001101 T
0K
0F
b0 -
b0 N
b0 x
b0 ("
b0 g
b0 f
0."
1""
0{
b11000 ;
b11000 n
0E
b1011111110001101 5
b1011111110001101 k
b0 h
b0 \
0|
03
1~
11
b1011111110001101 %
b1011111110001101 =
b1011111110001101 j
b0 V
b0 )
b0 ]
b0 p
b11000 m
b0 l
b11110 #
b1011111110001101 #"
b1011111110001101 -"
b11000101111111000110100 0"
b110001011111110001101 }
b110001011111110001101 ,"
b1101 @
b1111 A
b111100000110001011111110001101 2
b111100000110001011111110001101 v
b11001011011000 .
b11001011011000 w
b11001011011000 %"
b11001011011000 2"
b11001011011000 /"
b1011010100 $"
b11001011011000 1"
b11001011010100 ,
b11001011010100 e
b11001011010100 s
b11001011010100 &"
b11001011010100 *"
1!
#70000
0!
#71000
b110011000 r
0."
1""
0{
b110011000 $
b110011000 q
b10 9
b10 >
b10 S
1'
0|
03
1~
11
b110011000 :
b110011000 ?
b110011000 T
1J
b1 8
b1 R
b0 0
b0 O
b110011000 %
b110011000 =
0H
b110011000 5
b110011000 k
b11011 ;
b11011 n
b110011000 j
b11011 m
b110 #
b110011000 #"
b110011000 -"
b11011000000011001100000 0"
b110110000000110011000 }
b110110000000110011000 ,"
b11000 @
b1101 A
b0 h
b0 Z
b0 [
b110100000110110000000110011000 2
b110100000110110000000110011000 v
b11001011011100 .
b11001011011100 w
b11001011011100 %"
b11001011011100 2"
b11001011011100 /"
b0 V
b0 )
b0 ]
b0 p
b1011011000 $"
b11001011011100 1"
b11001011011000 ,
b11001011011000 e
b11001011011000 s
b11001011011000 &"
b11001011011000 *"
1!
#72000
0!
