P4/P4_test_2.0/src/mips_tb.vcd
$date
	Tue Nov 22 10:15:17 2022
$end
$version
	Icarus Verilog
$end
$timescale
	1ps
$end
$scope module mips_tb $end
$var reg 1 ! clk $end
$var reg 1 " reset $end
$scope module uut $end
$var wire 5 # A1_D [4:0] $end
$var wire 5 $ A2_D [4:0] $end
$var wire 32 % Reg_D [31:0] $end
$var wire 1 ! clk $end
$var wire 1 " reset $end
$var wire 16 & offset_D [15:0] $end
$var wire 26 ' instr_index_D [25:0] $end
$var wire 32 ( WD_WB [31:0] $end
$var wire 1 ) WD_DM_Sel $end
$var wire 32 * WD_DM_M [31:0] $end
$var wire 32 + V2 [31:0] $end
$var wire 32 , V1 [31:0] $end
$var wire 5 - Tuse_rt [4:0] $end
$var wire 5 . Tuse_rs [4:0] $end
$var wire 2 / Tnew_M [1:0] $end
$var wire 2 0 Tnew_E [1:0] $end
$var wire 2 1 SrcB_Sel_E [1:0] $end
$var wire 32 2 SrcB_E [31:0] $end
$var wire 2 3 SrcA_Sel_E [1:0] $end
$var wire 32 4 SrcA_E [31:0] $end
$var wire 1 5 Regwrite_WB $end
$var wire 1 6 Regwrite_M $end
$var wire 1 7 Regwrite_E $end
$var wire 1 8 Regwrite_D $end
$var wire 2 9 RegDst_D [1:0] $end
$var wire 32 : RD_WB [31:0] $end
$var wire 32 ; RD_M [31:0] $end
$var wire 2 < RD2_Sel_D_reg [1:0] $end
$var wire 2 = RD2_Sel_D [1:0] $end
$var wire 32 > RD2_M [31:0] $end
$var wire 2 ? RD2_FW_Sel_E [1:0] $end
$var wire 32 @ RD2_FW_E [31:0] $end
$var wire 32 A RD2_E [31:0] $end
$var wire 32 B RD2_D [31:0] $end
$var wire 2 C RD1_Sel_D_reg [1:0] $end
$var wire 2 D RD1_Sel_D [1:0] $end
$var wire 32 E RD1_E [31:0] $end
$var wire 32 F RD1_D [31:0] $end
$var wire 1 G PC_write $end
$var wire 32 H PC_WB [31:0] $end
$var wire 32 I PC_M [31:0] $end
$var wire 32 J PC_F [31:0] $end
$var wire 32 K PC_E [31:0] $end
$var wire 32 L PC_D [31:0] $end
$var wire 2 M NPCop_D [1:0] $end
$var wire 1 N Memwrite_M $end
$var wire 1 O Memwrite_E $end
$var wire 1 P Memwrite_D $end
$var wire 2 Q MemtoReg_WB [1:0] $end
$var wire 1 R Judge_D $end
$var wire 32 S Instr_WB [31:0] $end
$var wire 32 T Instr_M [31:0] $end
$var wire 32 U Instr_F [31:0] $end
$var wire 32 V Instr_E [31:0] $end
$var wire 32 W Instr_D [31:0] $end
$var wire 1 X IF_ID_en $end
$var wire 1 Y ID_EX_clr $end
$var wire 1 Z EXTop_D $end
$var wire 32 [ EXTImm_E [31:0] $end
$var wire 32 \ EXTImm_D [31:0] $end
$var wire 2 ] DMop_M [1:0] $end
$var wire 3 ^ CMPop_D [2:0] $end
$var wire 2 _ ALUsrc_E [1:0] $end
$var wire 32 ` ALUsrc0_E [31:0] $end
$var wire 32 a ALUresult_WB [31:0] $end
$var wire 32 b ALUresult_M [31:0] $end
$var wire 32 c ALUresult_E [31:0] $end
$var wire 3 d ALUctrl_E [2:0] $end
$var wire 5 e A3_WB [4:0] $end
$var wire 5 f A3_M [4:0] $end
$var wire 5 g A3_E [4:0] $end
$var wire 5 h A3_D [4:0] $end
$var wire 5 i A2_M [4:0] $end
$var wire 5 j A2_E [4:0] $end
$var wire 5 k A1_E [4:0] $end
$scope module _alu_E $end
$var wire 32 l SrcA [31:0] $end
$var wire 32 m SrcB [31:0] $end
$var wire 5 n s [4:0] $end
$var wire 3 o ALUctrl [2:0] $end
$var reg 32 p ALUresult [31:0] $end
$upscope $end
$scope module _cmp $end
$var wire 32 q RD1 [31:0] $end
$var wire 32 r RD2 [31:0] $end
$var wire 1 R Judge $end
$var wire 3 s CMPop [2:0] $end
$upscope $end
$scope module _ctrl_D $end
$var wire 1 Z EXTop $end
$var wire 6 t Func [5:0] $end
$var wire 1 P Memwrite $end
$var wire 6 u OP [5:0] $end
$var wire 1 v R $end
$var wire 1 8 Regwrite $end
$var wire 1 w add $end
$var wire 1 x beq $end
$var wire 1 y jal $end
$var wire 1 z jr $end
$var wire 1 { lui $end
$var wire 1 | lw $end
$var wire 1 } ori $end
$var wire 1 ~ sub $end
$var wire 1 !" sw $end
$var wire 1 "" j $end
$var wire 2 #" RegDst [1:0] $end
$var wire 2 $" NPCop [1:0] $end
$var wire 2 %" MemtoReg [1:0] $end
$var wire 2 &" DMop [1:0] $end
$var wire 3 '" CMPop [2:0] $end
$var wire 2 (" ALUsrc [1:0] $end
$var wire 3 )" ALUctrl [2:0] $end
$upscope $end
$scope module _ctrl_E $end
$var wire 1 *" EXTop $end
$var wire 6 +" Func [5:0] $end
$var wire 1 O Memwrite $end
$var wire 6 ," OP [5:0] $end
$var wire 1 -" R $end
$var wire 1 7 Regwrite $end
$var wire 1 ." add $end
$var wire 1 /" beq $end
$var wire 1 0" jal $end
$var wire 1 1" jr $end
$var wire 1 2" lui $end
$var wire 1 3" lw $end
$var wire 1 4" ori $end
$var wire 1 5" sub $end
$var wire 1 6" sw $end
$var wire 1 7" j $end
$var wire 2 8" RegDst [1:0] $end
$var wire 2 9" NPCop [1:0] $end
$var wire 2 :" MemtoReg [1:0] $end
$var wire 2 ;" DMop [1:0] $end
$var wire 3 <" CMPop [2:0] $end
$var wire 2 =" ALUsrc [1:0] $end
$var wire 3 >" ALUctrl [2:0] $end
$upscope $end
$scope module _ctrl_M $end
$var wire 1 ?" EXTop $end
$var wire 6 @" Func [5:0] $end
$var wire 1 N Memwrite $end
$var wire 6 A" OP [5:0] $end
$var wire 1 B" R $end
$var wire 1 6 Regwrite $end
$var wire 1 C" add $end
$var wire 1 D" beq $end
$var wire 1 E" jal $end
$var wire 1 F" jr $end
$var wire 1 G" lui $end
$var wire 1 H" lw $end
$var wire 1 I" ori $end
$var wire 1 J" sub $end
$var wire 1 K" sw $end
$var wire 1 L" j $end
$var wire 2 M" RegDst [1:0] $end
$var wire 2 N" NPCop [1:0] $end
$var wire 2 O" MemtoReg [1:0] $end
$var wire 2 P" DMop [1:0] $end
$var wire 3 Q" CMPop [2:0] $end
$var wire 2 R" ALUsrc [1:0] $end
$var wire 3 S" ALUctrl [2:0] $end
$upscope $end
$scope module _dm $end
$var wire 2 T" DMop [1:0] $end
$var wire 32 U" Data0 [31:0] $end
$var wire 1 N Memwrite $end
$var wire 32 V" RD0 [31:0] $end
$var wire 32 W" RD_ram [31:0] $end
$var wire 32 X" WD [31:0] $end
$var wire 1 ! clk $end
$var wire 1 " reset $end
$var wire 8 Y" WD8_15 [7:0] $end
$var wire 8 Z" WD24_31 [7:0] $end
$var wire 8 [" WD16_23 [7:0] $end
$var wire 8 \" WD0_7 [7:0] $end
$var wire 8 ]" RD8_15 [7:0] $end
$var wire 8 ^" RD24_31 [7:0] $end
$var wire 32 _" RD2 [31:0] $end
$var wire 8 `" RD16_23 [7:0] $end
$var wire 32 a" RD1 [31:0] $end
$var wire 8 b" RD0_7 [7:0] $end
$var wire 32 c" RD [31:0] $end
$var wire 32 d" PC [31:0] $end
$var wire 32 e" Data2 [31:0] $end
$var wire 32 f" Data1 [31:0] $end
$var wire 32 g" Data [31:0] $end
$var wire 32 h" A [31:0] $end
$var integer 32 i" i [31:0] $end
$upscope $end
$scope module _dm_wb $end
$var wire 32 j" RD_M [31:0] $end
$var wire 1 ! clk $end
$var wire 1 " reset $end
$var wire 32 k" PC_M [31:0] $end
$var wire 32 l" Instr_M [31:0] $end
$var wire 32 m" ALUresult_M [31:0] $end
$var wire 5 n" A3_M [4:0] $end
$var reg 5 o" A3_WB [4:0] $end
$var reg 32 p" ALUresult_WB [31:0] $end
$var reg 32 q" Instr_WB [31:0] $end
$var reg 32 r" PC_WB [31:0] $end
$var reg 32 s" RD_WB [31:0] $end
$upscope $end
$scope module _ex_dm $end
$var wire 32 t" ALUresult_E [31:0] $end
$var wire 32 u" RD2_E [31:0] $end
$var wire 1 ! clk $end
$var wire 1 " reset $end
$var wire 32 v" PC_E [31:0] $end
$var wire 32 w" Instr_E [31:0] $end
$var wire 5 x" A3_E [4:0] $end
$var wire 5 y" A2_E [4:0] $end
$var reg 5 z" A2_M [4:0] $end
$var reg 5 {" A3_M [4:0] $end
$var reg 32 |" ALUresult_M [31:0] $end
$var reg 32 }" Instr_M [31:0] $end
$var reg 32 ~" PC_M [31:0] $end
$var reg 32 !# RD2_M [31:0] $end
$upscope $end
$scope module _ext $end
$var wire 1 Z EXTop $end
$var wire 16 "# Imm [15:0] $end
$var wire 32 ## EXTImm [31:0] $end
$upscope $end
$scope module _grf $end
$var wire 5 $# A1 [4:0] $end
$var wire 5 %# A2 [4:0] $end
$var wire 5 &# A3 [4:0] $end
$var wire 32 '# PC [31:0] $end
$var wire 32 (# WD [31:0] $end
$var wire 1 ! clk $end
$var wire 1 " reset $end
$var wire 32 )# wd [31:0] $end
$var wire 1 5 Regwrite $end
$var wire 32 *# RD2 [31:0] $end
$var wire 32 +# RD1 [31:0] $end
$var integer 32 ,# i [31:0] $end
$upscope $end
$scope module _hazard $end
$var wire 1 Y ID_EX_clr $end
$var wire 1 X IF_ID_en $end
$var wire 1 G PCwrite $end
$var wire 1 7 Regwrite_E $end
$var wire 1 6 Regwrite_M $end
$var wire 2 -# Tnew_E_ [1:0] $end
$var wire 2 .# Tnew_M_ [1:0] $end
$var wire 5 /# Tuse_rs_D [4:0] $end
$var wire 5 0# Tuse_rt_D [4:0] $end
$var wire 1 ! clk $end
$var wire 1 1# stall $end
$var wire 5 2# rt [4:0] $end
$var wire 5 3# rs [4:0] $end
$var wire 5 4# rd [4:0] $end
$var wire 2 5# Tuse_rt [1:0] $end
$var wire 2 6# Tuse_rs [1:0] $end
$var wire 2 7# Tnew_M [1:0] $end
$var wire 2 8# Tnew_E [1:0] $end
$var wire 5 9# Num_use_rt [4:0] $end
$var wire 5 :# Num_use_rs [4:0] $end
$var wire 5 ;# Num_new_M [4:0] $end
$var wire 5 <# Num_new_E [4:0] $end
$var wire 32 =# Instr_E [31:0] $end
$var wire 32 ># Instr_D [31:0] $end
$scope module hazard_e $end
$var wire 5 ?# rt [4:0] $end
$var wire 5 @# rs [4:0] $end
$var wire 5 A# rd [4:0] $end
$var wire 32 B# Instr_E [31:0] $end
$var reg 5 C# Num_new_E [4:0] $end
$var reg 2 D# Tnew_E [1:0] $end
$upscope $end
$scope module hazard_m $end
$var wire 5 E# Num_new_E [4:0] $end
$var wire 2 F# Tnew_E [1:0] $end
$var wire 1 ! clk $end
$var reg 5 G# Num_new_M [4:0] $end
$var reg 2 H# Tnew_M [1:0] $end
$upscope $end
$upscope $end
$scope module _id_ex $end
$var wire 5 I# A1_D [4:0] $end
$var wire 5 J# A2_D [4:0] $end
$var wire 5 K# A3_D [4:0] $end
$var wire 32 L# EXTImm_D [31:0] $end
$var wire 1 Y ID_EX_clr $end
$var wire 32 M# RD1_D [31:0] $end
$var wire 2 N# RD1_Sel_D [1:0] $end
$var wire 32 O# RD2_D [31:0] $end
$var wire 2 P# RD2_Sel_D [1:0] $end
$var wire 1 ! clk $end
$var wire 1 " reset $end
$var wire 32 Q# PC_D [31:0] $end
$var wire 32 R# Instr_D [31:0] $end
$var reg 5 S# A1_E [4:0] $end
$var reg 5 T# A2_E [4:0] $end
$var reg 5 U# A3_E [4:0] $end
$var reg 32 V# EXTImm_E [31:0] $end
$var reg 32 W# Instr_E [31:0] $end
$var reg 32 X# PC_E [31:0] $end
$var reg 32 Y# RD1_E [31:0] $end
$var reg 2 Z# RD1_Sel_D_reg [1:0] $end
$var reg 32 [# RD2_E [31:0] $end
$var reg 2 \# RD2_Sel_D_reg [1:0] $end
$upscope $end
$scope module _if_id $end
$var wire 1 X IF_ID_en $end
$var wire 1 ! clk $end
$var wire 1 " reset $end
$var wire 32 ]# PC_F [31:0] $end
$var wire 32 ^# Instr_F [31:0] $end
$var reg 32 _# Instr_D [31:0] $end
$var reg 32 `# PC_D [31:0] $end
$upscope $end
$scope module _ifu $end
$var wire 32 a# Instr [31:0] $end
$var wire 1 R Judge $end
$var wire 2 b# NPCop [1:0] $end
$var wire 32 c# PC_in [31:0] $end
$var wire 1 G PCwrite $end
$var wire 32 d# Reg [31:0] $end
$var wire 1 ! clk $end
$var wire 26 e# instr_index [25:0] $end
$var wire 16 f# offset [15:0] $end
$var wire 1 " reset $end
$var wire 32 g# pc [31:0] $end
$var wire 1 h# PC_4 $end
$var wire 32 i# NPC_wire [31:0] $end
$var reg 32 j# PC [31:0] $end
$var integer 32 k# i [31:0] $end
$scope module npc $end
$var wire 1 R Judge $end
$var wire 2 l# NPCop [1:0] $end
$var wire 32 m# O4 [31:0] $end
$var wire 32 n# PC [31:0] $end
$var wire 32 o# PC_in [31:0] $end
$var wire 32 p# Reg [31:0] $end
$var wire 26 q# instr_index [25:0] $end
$var wire 16 r# offset [15:0] $end
$var wire 32 s# PC_8 [31:0] $end
$var wire 32 t# O3 [31:0] $end
$var wire 32 u# O2 [31:0] $end
$var wire 32 v# O1 [31:0] $end
$var wire 32 w# NPC [31:0] $end
$upscope $end
$upscope $end
$scope module ctrl_wb $end
$var wire 1 x# EXTop $end
$var wire 6 y# Func [5:0] $end
$var wire 1 z# Memwrite $end
$var wire 6 {# OP [5:0] $end
$var wire 1 |# R $end
$var wire 1 5 Regwrite $end
$var wire 1 }# add $end
$var wire 1 ~# beq $end
$var wire 1 !$ jal $end
$var wire 1 "$ jr $end
$var wire 1 #$ lui $end
$var wire 1 $$ lw $end
$var wire 1 %$ ori $end
$var wire 1 &$ sub $end
$var wire 1 '$ sw $end
$var wire 1 ($ j $end
$var wire 2 )$ RegDst [1:0] $end
$var wire 2 *$ NPCop [1:0] $end
$var wire 2 +$ MemtoReg [1:0] $end
$var wire 2 ,$ DMop [1:0] $end
$var wire 3 -$ CMPop [2:0] $end
$var wire 2 .$ ALUsrc [1:0] $end
$var wire 3 /$ ALUctrl [2:0] $end
$upscope $end
$upscope $end
$upscope $end
$enddefinitions $end
#0
$dumpvars
b0 /$
b0 .$
b0 -$
b0 ,$
b0 +$
b0 *$
b0 )$
0($
0'$
0&$
0%$
0$$
0#$
0"$
0!$
0~#
0}#
1|#
b0 {#
0z#
b0 y#
0x#
b11000000000100 w#
b11000000000100 v#
b0 u#
b11000000000100 t#
b11000000001000 s#
b0 r#
b0 q#
b0 p#
b11000000000000 o#
b11000000000000 n#
b0 m#
b0 l#
b1000000000000 k#
b11000000000000 j#
b11000000000100 i#
0h#
b0 g#
b0 f#
b0 e#
b0 d#
b11000000000000 c#
b0 b#
b110100000111010010001011111100 a#
b11000000000000 `#
b0 _#
b110100000111010010001011111100 ^#
b11000000000000 ]#
b0 \#
b0 [#
b0 Z#
b0 Y#
b11000000000000 X#
b0 W#
b0 V#
b0 U#
b0 T#
b0 S#
b0 R#
b11000000000000 Q#
b0 P#
b0 O#
b0 N#
b0 M#
b0 L#
b0 K#
b0 J#
b0 I#
b0 H#
bz G#
bx F#
bx E#
bx D#
bx C#
b0 B#
b0 A#
b0 @#
b0 ?#
b0 >#
b0 =#
bx <#
bz ;#
b0 :#
b0 9#
bx 8#
b0 7#
b0 6#
b0 5#
b0 4#
b0 3#
b0 2#
01#
b0 0#
b0 /#
b0 .#
bx -#
b100000 ,#
b0 +#
b0 *#
b0 )#
b0 (#
b11000000000000 '#
b0 &#
b0 %#
b0 $#
b0 ##
b0 "#
b0 !#
b11000000000000 ~"
b0 }"
b0 |"
b0 {"
b0 z"
b0 y"
b0 x"
b0 w"
b11000000000000 v"
b0 u"
b0 t"
b0 s"
b11000000000000 r"
b0 q"
b0 p"
b0 o"
b0 n"
b0 m"
b0 l"
b11000000000000 k"
b0 j"
b1000000000000 i"
b0 h"
b0 g"
b0 f"
b0 e"
b11000000000000 d"
b0 c"
b0 b"
b0 a"
b0 `"
b0 _"
b0 ^"
b0 ]"
b0 \"
b0 ["
b0 Z"
b0 Y"
b0 X"
b0 W"
b0 V"
b0 U"
b0 T"
b0 S"
b0 R"
b0 Q"
b0 P"
b0 O"
b0 N"
b0 M"
0L"
0K"
0J"
0I"
0H"
0G"
0F"
0E"
0D"
0C"
1B"
b0 A"
b0 @"
0?"
b0 >"
b0 ="
b0 <"
b0 ;"
b0 :"
b0 9"
b0 8"
07"
06"
05"
04"
03"
02"
01"
00"
0/"
0."
1-"
b0 ,"
b0 +"
0*"
b0 )"
b0 ("
b0 '"
b0 &"
b0 %"
b0 $"
b0 #"
0""
0!"
0~
0}
0|
0{
0z
0y
0x
0w
1v
b0 u
b0 t
b0 s
b0 r
b0 q
b0 p
b0 o
b0 n
b0 m
b0 l
b0 k
b0 j
b0 i
b0 h
b0 g
b0 f
b0 e
b0 d
b0 c
b0 b
b0 a
b0 `
b0 _
b0 ^
b0 ]
b0 \
b0 [
0Z
0Y
1X
b0 W
b0 V
b110100000111010010001011111100 U
b0 T
b0 S
1R
b0 Q
0P
0O
0N
b0 M
b11000000000000 L
b11000000000000 K
b11000000000000 J
b11000000000000 I
b11000000000000 H
1G
b0 F
b0 E
b0 D
b0 C
b0 B
b0 A
b0 @
b0 ?
b0 >
b0 =
b0 <
b0 ;
b0 :
b0 9
08
07
06
05
b0 4
b0 3
b0 2
b0 1
bx 0
b0 /
b0 .
b0 -
b0 ,
b0 +
b0 *
0)
b0 (
b0 '
b0 &
b0 %
b0 $
b0 #
1"
0!
$end
#1000
bx ;#
bx G#
bx /
bx .#
bx 7#
bx H#
b100000 ,#
b1000000000000 i"
1!
#2000
0!
#3000
b1000000000000 i"
b100000 ,#
1!
#4000
0!
#5000
b100000 ,#
b1000000000000 i"
1!
#6000
0!
#7000
b1000000000000 i"
b100000 ,#
1!
#8000
0!
#9000
b100000 ,#
b1000000000000 i"
1!
#10000
0!
#11000
b1000000000000 i"
b100000 ,#
1!
#12000
0!
#13000
b100000 ,#
b1000000000000 i"
1!
#14000
0!
#15000
b1000000000000 i"
b100000 ,#
1!
#16000
0!
#17000
b100000 ,#
b1000000000000 i"
1!
#18000
0!
#19000
b1000000000000 i"
b100000 ,#
1!
#20000
0!
0"
#21000
b11101 h
b11101 K#
18
b1 ("
b10 )"
0v
1}
b1 6#
b100 4#
b11101 2#
b1011101111110100 t#
b10001011111100 \
b10001011111100 ##
b10001011111100 L#
b110100000111000001100000000000 U
b110100000111000001100000000000 ^#
b110100000111000001100000000000 a#
b11000000001000 i#
b11000000001000 w#
b11101001000101111110000 u#
b111010010001011111100 '
b111010010001011111100 e#
b111010010001011111100 q#
b10001011111100 &
b10001011111100 f#
b10001011111100 r#
b10001011111100 "#
b11101 %#
b111100 t
b1101 u
b100 g#
b11000000001000 v#
b11000000000100 J
b11000000000100 ]#
b11000000000100 j#
b11000000000100 n#
b110100000111010010001011111100 W
b110100000111010010001011111100 >#
b110100000111010010001011111100 R#
b110100000111010010001011111100 _#
1!
#22000
0!
#23000
b10001011111100 c
b10001011111100 p
b10001011111100 t"
b10001011111100 2
b10001011111100 m
b10001011111100 `
17
b1 _
b1 ="
b10 d
b10 o
b10 >"
0-"
14"
b100 A#
b11101 ?#
b11 4#
b11100 2#
b11100 h
b11100 K#
b1100000000000 \
b1100000000000 ##
b1100000000000 L#
b1011 n
b111100 +"
b1101 ,"
b11101 <#
b11101 C#
b11101 E#
b1 0
b1 -#
b1 8#
b1 D#
b1 F#
b11100000110000000000000 u#
b111000001100000000000 '
b111000001100000000000 e#
b111000001100000000000 q#
b1100000000000 &
b1100000000000 f#
b1100000000000 r#
b1100000000000 "#
b11100 %#
b0 t
b1001000000001000 t#
b110100000111110011000000000000 U
b110100000111110011000000000000 ^#
b110100000111110011000000000000 a#
b11000000001100 i#
b11000000001100 w#
b10001011111100 [
b10001011111100 V#
b11101 g
b11101 x"
b11101 U#
b110100000111010010001011111100 V
b110100000111010010001011111100 w"
b110100000111010010001011111100 =#
b110100000111010010001011111100 B#
b110100000111010010001011111100 W#
b110100000111000001100000000000 W
b110100000111000001100000000000 >#
b110100000111000001100000000000 R#
b110100000111000001100000000000 _#
b11000000001100 s#
b11000000000100 L
b11000000000100 Q#
b11000000000100 `#
b11000000000100 c#
b11000000000100 o#
b1000 g#
b11000000001100 v#
b11000000001000 J
b11000000001000 ]#
b11000000001000 j#
b11000000001000 n#
1!
#24000
0!
#25000
16
b1 R"
b10 S"
0B"
1I"
b1100000000000 c
b1100000000000 p
b1100000000000 t"
b1100000000000 2
b1100000000000 m
b11100 <#
b11100 C#
b11100 E#
b110 4#
b11111 2#
b11111 h
b11111 K#
b11000000000000 \
b11000000000000 ##
b11000000000000 L#
b1100000000000 `
b11 A#
b11100 ?#
b10000000010011000000100010 U
b10000000010011000000100010 ^#
b10000000010011000000100010 a#
b11000000010000 i#
b11000000010000 w#
b11111001100000000000000 u#
b111110011000000000000 '
b111110011000000000000 e#
b111110011000000000000 q#
b11000000000000 &
b11000000000000 f#
b11000000000000 r#
b11000000000000 "#
b11111 %#
b1111000000001100 t#
b0 n
b0 +"
b111100 @"
b1101 A"
b1100 g#
b11000000010000 v#
b11000000001100 J
b11000000001100 ]#
b11000000001100 j#
b11000000001100 n#
b110100000111110011000000000000 W
b110100000111110011000000000000 >#
b110100000111110011000000000000 R#
b110100000111110011000000000000 _#
b11000000010000 s#
b11000000001000 L
b11000000001000 Q#
b11000000001000 `#
b11000000001000 c#
b11000000001000 o#
b1100000000000 [
b1100000000000 V#
b11100 g
b11100 x"
b11100 U#
b11000000000100 K
b11000000000100 v"
b11000000000100 X#
b110100000111000001100000000000 V
b110100000111000001100000000000 w"
b110100000111000001100000000000 =#
b110100000111000001100000000000 B#
b110100000111000001100000000000 W#
b10001011111100 b
b10001011111100 h"
b10001011111100 m"
b10001011111100 |"
b110100000111010010001011111100 T
b110100000111010010001011111100 l"
b110100000111010010001011111100 }"
b11101 f
b11101 n"
b11101 {"
b11101 ;#
b11101 G#
b0 /
b0 .#
b0 7#
b0 H#
1!
#26000
0!
#27000
b1 9
b1 #"
1~
15
b1 .$
1v
b10 /$
18
b0 ("
0|#
1%$
b11000000000000 c
b11000000000000 p
b11000000000000 t"
b1 5#
b1 $
b1 J#
b1 -
b1 0#
b1 9#
b10000 #
b10000 I#
b10000 .
b10000 /#
b10000 :#
b1 )"
b11000000000000 2
b11000000000000 m
b11111 <#
b11111 C#
b11111 E#
0}
b10001011111100 )#
b11000000000000 `
b110 A#
b11111 ?#
b1 2#
b10000 3#
b110 h
b110 K#
b11000000100010 \
b11000000100010 ##
b11000000100010 L#
b10001011111100 (
b10001011111100 (#
b111100 y#
b1101 {#
b0 @"
b1000000001001100000010001000 u#
b10000000010011000000100010 '
b10000000010011000000100010 e#
b10000000010011000000100010 q#
b11000000100010 &
b11000000100010 f#
b11000000100010 r#
b11000000100010 "#
b1 %#
b10000 $#
b100010 t
b0 u
b1111000010011000 t#
b0 U
b0 ^#
b0 a#
b11000000010100 i#
b11000000010100 w#
b11100 ;#
b11100 G#
b10001011111100 a
b10001011111100 p"
b110100000111010010001011111100 S
b110100000111010010001011111100 q"
b11101 e
b11101 o"
b11101 &#
b1100000000000 b
b1100000000000 h"
b1100000000000 m"
b1100000000000 |"
b110100000111000001100000000000 T
b110100000111000001100000000000 l"
b110100000111000001100000000000 }"
b11100 f
b11100 n"
b11100 {"
b11000000000100 I
b11000000000100 d"
b11000000000100 k"
b11000000000100 ~"
b11000000000000 [
b11000000000000 V#
b11111 g
b11111 x"
b11111 U#
b11000000001000 K
b11000000001000 v"
b11000000001000 X#
b110100000111110011000000000000 V
b110100000111110011000000000000 w"
b110100000111110011000000000000 =#
b110100000111110011000000000000 B#
b110100000111110011000000000000 W#
b10000000010011000000100010 W
b10000000010011000000100010 >#
b10000000010011000000100010 R#
b10000000010011000000100010 _#
b11000000010100 s#
b11000000001100 L
b11000000001100 Q#
b11000000001100 `#
b11000000001100 c#
b11000000001100 o#
b10000 g#
b11000000010100 v#
b11000000010000 J
b11000000010000 ]#
b11000000010000 j#
b11000000010000 n#
1!
#28000
0!
#29000
b1 8"
15"
08
1-"
17
b0 _
b0 ="
b0 )"
0w
b0 9
b0 #"
b0 5#
b0 6#
b0 $
b0 J#
b0 -
b0 0#
b0 9#
b0 #
b0 I#
b0 .
b0 /#
b0 :#
0~
b0 c
b0 p
b0 t"
b1 d
b1 o
b1 >"
b0 h
b0 K#
b0 2
b0 m
04"
b0 4#
b0 2#
b0 3#
b0 \
b0 ##
b0 L#
b0 `
b1 ?#
b10000 @#
b1100000000000 )#
b110000100000100000 U
b110000100000100000 ^#
b110000100000100000 a#
b11000000011000 i#
b11000000011000 w#
b0 u#
b0 '
b0 e#
b0 q#
b0 &
b0 f#
b0 r#
b0 "#
b0 %#
b0 $#
b0 t
b11000000010100 t#
b100010 +"
b0 ,"
b110 <#
b110 C#
b110 E#
b1100000000000 (
b1100000000000 (#
b0 y#
b10100 g#
b11000000011000 v#
b11000000010100 J
b11000000010100 ]#
b11000000010100 j#
b11000000010100 n#
b0 W
b0 >#
b0 R#
b0 _#
b11000000011000 s#
b11000000010000 L
b11000000010000 Q#
b11000000010000 `#
b11000000010000 c#
b11000000010000 o#
b1 j
b1 y"
b1 T#
b10000 k
b10000 S#
b11000000100010 [
b11000000100010 V#
b110 g
b110 x"
b110 U#
b11000000001100 K
b11000000001100 v"
b11000000001100 X#
b10000000010011000000100010 V
b10000000010011000000100010 w"
b10000000010011000000100010 =#
b10000000010011000000100010 B#
b10000000010011000000100010 W#
b11000000000000 b
b11000000000000 h"
b11000000000000 m"
b11000000000000 |"
b110100000111110011000000000000 T
b110100000111110011000000000000 l"
b110100000111110011000000000000 }"
b11111 f
b11111 n"
b11111 {"
b11000000001000 I
b11000000001000 d"
b11000000001000 k"
b11000000001000 ~"
b1100000000000 a
b1100000000000 p"
b110100000111000001100000000000 S
b110100000111000001100000000000 q"
b11100 e
b11100 o"
b11100 &#
b11000000000100 H
b11000000000100 r"
b11000000000100 '#
b11111 ;#
b11111 G#
1!
#30000
0!
#31000
b1 h
b1 K#
b1 M"
1J"
18
b1 9
b1 #"
07
1B"
1w
16
b0 R"
b0 d
b0 o
b0 >"
0."
b0 8"
b1 S"
05"
0I"
b1 5#
b11 $
b11 J#
b11 -
b11 0#
b11 9#
b1 6#
b11000000000000 )#
b0 A#
b0 ?#
b0 @#
b1 4#
b11 2#
b100000100000 \
b100000100000 ##
b100000100000 L#
b11000000000000 (
b11000000000000 (#
b100010 @"
b0 A"
b0 +"
b11000010000010000000 u#
b110000100000100000 '
b110000100000100000 e#
b110000100000100000 q#
b100000100000 &
b100000100000 f#
b100000100000 r#
b100000100000 "#
b11 %#
b100000 t
b101000010011000 t#
b10010001000110000000000001010 U
b10010001000110000000000001010 ^#
b10010001000110000000000001010 a#
b11000000011100 i#
b11000000011100 w#
b110 ;#
b110 G#
b11000000000000 a
b11000000000000 p"
b110100000111110011000000000000 S
b110100000111110011000000000000 q"
b11111 e
b11111 o"
b11111 &#
b11000000001000 H
b11000000001000 r"
b11000000001000 '#
b1 i
b1 z"
b0 b
b0 h"
b0 m"
b0 |"
b10000000010011000000100010 T
b10000000010011000000100010 l"
b10000000010011000000100010 }"
b110 f
b110 n"
b110 {"
b11000000001100 I
b11000000001100 d"
b11000000001100 k"
b11000000001100 ~"
b0 j
b0 y"
b0 T#
b0 k
b0 S#
b0 [
b0 V#
b0 g
b0 x"
b0 U#
b11000000010000 K
b11000000010000 v"
b11000000010000 X#
b0 V
b0 w"
b0 =#
b0 B#
b0 W#
b110000100000100000 W
b110000100000100000 >#
b110000100000100000 R#
b110000100000100000 _#
b11000000011100 s#
b11000000010100 L
b11000000010100 Q#
b11000000010100 `#
b11000000010100 c#
b11000000010100 o#
b11000 g#
b11000000011100 v#
b11000000011000 J
b11000000011000 ]#
b11000000011000 j#
b11000000011000 n#
1!
#32000
0!
