P4/P4_test_1.0/P4_test/src/mips_tb.vcd
$date
	Tue Nov 15 22:34:43 2022
$end
$version
	Icarus Verilog
$end
$timescale
	1ps
$end
$scope module mips_tb $end
$var reg 1 ! clk $end
$var reg 1 " reset $end
$scope module uut $end
$var wire 1 ! clk $end
$var wire 1 " reset $end
$var wire 32 # s [31:0] $end
$var wire 32 $ WD [31:0] $end
$var wire 32 % SrcB [31:0] $end
$var wire 32 & SrcA [31:0] $end
$var wire 1 ' Regwrite $end
$var wire 2 ( RegDst [1:0] $end
$var wire 32 ) RD2 [31:0] $end
$var wire 32 * RD1 [31:0] $end
$var wire 32 + RD [31:0] $end
$var wire 32 , PC [31:0] $end
$var wire 2 - NPCop [1:0] $end
$var wire 32 . NPC [31:0] $end
$var wire 1 / Memwrite $end
$var wire 2 0 MemtoReg [1:0] $end
$var wire 1 1 Less $end
$var wire 1 2 Judge $end
$var wire 32 3 Instr [31:0] $end
$var wire 1 4 Equal $end
$var wire 1 5 EXTop $end
$var wire 32 6 EXTImm [31:0] $end
$var wire 2 7 DMop [1:0] $end
$var wire 3 8 CMPop [2:0] $end
$var wire 2 9 ALUsrc [1:0] $end
$var wire 3 : ALUctrl [2:0] $end
$var wire 32 ; ALUResult [31:0] $end
$var wire 5 < A3 [4:0] $end
$scope module _alu $end
$var wire 32 = SrcA [31:0] $end
$var wire 32 > SrcB [31:0] $end
$var wire 1 1 Less $end
$var wire 1 4 Equal $end
$var wire 3 ? ALUop [2:0] $end
$var wire 32 @ ALUResult [31:0] $end
$upscope $end
$scope module _cmp $end
$var wire 32 A RD2 [31:0] $end
$var wire 32 B RD1 [31:0] $end
$var wire 1 2 Judge $end
$var wire 3 C CMPop [2:0] $end
$upscope $end
$scope module _ctrl $end
$var wire 1 5 EXTop $end
$var wire 6 D Func [5:0] $end
$var wire 1 / Memwrite $end
$var wire 6 E OP [5:0] $end
$var wire 1 F R $end
$var wire 1 ' Regwrite $end
$var wire 1 G add $end
$var wire 1 H beq $end
$var wire 1 I j $end
$var wire 1 J jal $end
$var wire 1 K jalr $end
$var wire 1 L jr $end
$var wire 1 M lui $end
$var wire 1 N lw $end
$var wire 1 O ori $end
$var wire 1 P sll $end
$var wire 1 Q sub $end
$var wire 1 R sw $end
$var wire 2 S RegDst [1:0] $end
$var wire 2 T NPCop [1:0] $end
$var wire 2 U MemtoReg [1:0] $end
$var wire 2 V DMop [1:0] $end
$var wire 3 W CMPop [2:0] $end
$var wire 2 X ALUsrc [1:0] $end
$var wire 3 Y ALUctrl [2:0] $end
$upscope $end
$scope module _dm $end
$var wire 32 Z A [31:0] $end
$var wire 2 [ DMop [1:0] $end
$var wire 32 \ Data0 [31:0] $end
$var wire 1 / Memwrite $end
$var wire 32 ] RD0 [31:0] $end
$var wire 32 ^ RD_ram [31:0] $end
$var wire 1 ! clk $end
$var wire 1 " reset $end
$var wire 8 _ WD8_15 [7:0] $end
$var wire 8 ` WD24_31 [7:0] $end
$var wire 8 a WD16_23 [7:0] $end
$var wire 8 b WD0_7 [7:0] $end
$var wire 32 c WD [31:0] $end
$var wire 8 d RD8_15 [7:0] $end
$var wire 8 e RD24_31 [7:0] $end
$var wire 32 f RD2 [31:0] $end
$var wire 8 g RD16_23 [7:0] $end
$var wire 32 h RD1 [31:0] $end
$var wire 8 i RD0_7 [7:0] $end
$var wire 32 j RD [31:0] $end
$var wire 32 k PC [31:0] $end
$var wire 32 l Data2 [31:0] $end
$var wire 32 m Data1 [31:0] $end
$var wire 32 n Data [31:0] $end
$var integer 32 o i [31:0] $end
$upscope $end
$scope module _ext $end
$var wire 1 5 EXTop $end
$var wire 16 p Imm [15:0] $end
$var wire 32 q EXTImm [31:0] $end
$upscope $end
$scope module _grf $end
$var wire 5 r A1 [4:0] $end
$var wire 5 s A2 [4:0] $end
$var wire 5 t A3 [4:0] $end
$var wire 32 u RD1 [31:0] $end
$var wire 32 v RD2 [31:0] $end
$var wire 32 w WD [31:0] $end
$var wire 1 ' WE $end
$var wire 1 ! clk $end
$var wire 1 " reset $end
$var wire 32 x wd [31:0] $end
$var wire 32 y PC [31:0] $end
$var integer 32 z i [31:0] $end
$upscope $end
$scope module _ifu $end
$var wire 32 { Instr [31:0] $end
$var wire 1 2 Judge $end
$var wire 32 | NPC [31:0] $end
$var wire 2 } NPCop [1:0] $end
$var wire 32 ~ Reg [31:0] $end
$var wire 1 ! clk $end
$var wire 26 !" instr_index [25:0] $end
$var wire 16 "" offset [15:0] $end
$var wire 1 " reset $end
$var wire 32 #" PC1 [31:0] $end
$var wire 32 $" NPC_wire [31:0] $end
$var reg 32 %" PC [31:0] $end
$scope module npc $end
$var wire 1 2 Judge $end
$var wire 2 &" NPCop [1:0] $end
$var wire 32 '" O4 [31:0] $end
$var wire 32 (" PC [31:0] $end
$var wire 32 )" Reg [31:0] $end
$var wire 26 *" instr_index [25:0] $end
$var wire 16 +" offset [15:0] $end
$var wire 32 ," O3 [31:0] $end
$var wire 32 -" O2 [31:0] $end
$var wire 32 ." O1 [31:0] $end
$var wire 32 /" NPC [31:0] $end
$upscope $end
$upscope $end
$upscope $end
$upscope $end
$enddefinitions $end
#0
$dumpvars
b11000000000100 /"
b11000000000100 ."
b1001000000010010001100 -"
b110x00x00x0x00 ,"
b100100011 +"
b10010000000100100011 *"
bx )"
b11000000000000 ("
bx '"
b0 &"
b11000000000000 %"
b11000000000100 $"
b0 #"
b100100011 ""
b10010000000100100011 !"
bx ~
b0 }
b11000000000100 |
b110100000010010000000100100011 {
b0 z
b11000000000000 y
bx1xx1xxx11 x
bx1xx1xxx11 w
bx v
bx u
b1001 t
b1001 s
b0 r
b100100011 q
b100100011 p
b0 o
bx n
bx m
bx l
b11000000000000 k
bx j
bx i
bx h
bx g
bx f
bx e
bx d
bx c
bx b
bx a
bx `
bx _
bx ^
bx ]
bx \
b0 [
bx1xx1xxx11 Z
b10 Y
b1 X
b0 W
b0 V
b0 U
b0 T
b0 S
0R
0Q
0P
1O
0N
0M
0L
0K
0J
0I
0H
0G
0F
b1101 E
b100011 D
b0 C
bx B
bx A
bx1xx1xxx11 @
b10 ?
b100100011 >
bx =
b1001 <
bx1xx1xxx11 ;
b10 :
b1 9
b0 8
b0 7
b100100011 6
05
x4
b110100000010010000000100100011 3
x2
x1
b0 0
0/
b11000000000100 .
b0 -
b11000000000000 ,
bx +
bx *
bx )
b0 (
1'
bx &
b100100011 %
bx1xx1xxx11 $
b100 #
1"
0!
$end
#1000
b0 f
b0 h
b0 e
b0 g
b0 d
b0 i
b0 +
b0 j
b100100011 x
b0 ]
b0 ^
b100100011 $
b100100011 w
b0 l
b100100011 ;
b100100011 @
b100100011 Z
b11010010010000 ,"
b0 m
b0 n
b0 `
b0 a
b0 _
b0 b
12
04
11
b0 &
b0 =
b0 \
b0 )
b0 A
b0 c
b0 v
b0 '"
b0 *
b0 B
b0 u
b0 ~
b0 )"
b100000 z
b1000000000000 o
1!
#2000
0!
#3000
b1000000000000 o
b100000 z
1!
#4000
0!
#5000
b100000 z
b1000000000000 o
1!
#6000
0!
#7000
b1000000000000 o
b100000 z
1!
#8000
0!
#9000
b100000 z
b1000000000000 o
1!
#10000
0!
#11000
b1000000000000 o
b100000 z
1!
#12000
0!
#13000
b100000 z
b1000000000000 o
1!
#14000
0!
#15000
b1000000000000 o
b100000 z
1!
#16000
0!
#17000
b100000 z
b1000000000000 o
1!
#18000
0!
#19000
b1000000000000 o
b100000 z
1!
#20000
0!
0"
#21000
xG
xQ
xL
x'
bx h
bx f
xF
x5
x/
bx e
bx g
bx d
bx i
bx +
bx j
xN
xR
xH
xJ
xI
bx ]
bx ^
bx ;
bx @
bx Z
bx %
bx >
xM
bx $
bx w
bx l
bx x
xO
bx 9
bx X
bx :
bx ?
bx Y
bx (
bx S
bx 0
bx U
bx -
bx T
bx }
bx &"
bx 6
bx q
bx `
bx a
x4
x1
bx &
bx =
bx <
bx t
xP
xK
bx p
bx s
bx '"
bx *
bx B
bx u
bx ~
bx )"
bx r
b0xxxxx #
bx ""
bx +"
b0xxxxxxxxxxxxxxxxxxxxxxxxxx00 -"
bx !"
bx *"
bx D
bx E
bx m
bx 3
bx {
bx .
bx |
bx $"
bx /"
bx ,"
bx n
bx _
bx b
x2
b100 #"
b11000000001000 ."
b11000000000100 ,
b11000000000100 k
b11000000000100 y
b11000000000100 %"
b11000000000100 ("
bx \
bx )
bx A
bx c
bx v
1!
#22000
0!
#23000
bx00 -"
bx #"
bx ."
bx ,
bx k
bx y
bx %"
bx ("
1!
